%YAML 1.1
%TAG !u! tag:unity3d.com,2011:
--- !u!1001 &100100000
Prefab:
  m_ObjectHideFlags: 1
  serializedVersion: 2
  m_Modification:
    m_TransformParent: {fileID: 0}
    m_Modifications: []
    m_RemovedComponents: []
  m_ParentPrefab: {fileID: 0}
  m_RootGameObject: {fileID: 1063210774354640}
  m_IsPrefabParent: 1
--- !u!1 &1063210774354640
GameObject:
  m_ObjectHideFlags: 0
  m_PrefabParentObject: {fileID: 0}
  m_PrefabInternal: {fileID: 100100000}
  serializedVersion: 5
  m_Component:
  - component: {fileID: 4921119137224694}
  - component: {fileID: 2569400268331065354}
  m_Layer: 31
  m_Name: 2D Platformer
  m_TagString: Untagged
  m_Icon: {fileID: 0}
  m_NavMeshLayer: 0
  m_StaticEditorFlags: 0
  m_IsActive: 1
--- !u!1 &1515508775567028
GameObject:
  m_ObjectHideFlags: 0
  m_PrefabParentObject: {fileID: 0}
  m_PrefabInternal: {fileID: 100100000}
  serializedVersion: 5
  m_Component:
  - component: {fileID: 4999090670787532}
  - component: {fileID: 8195094281558370192}
  - component: {fileID: 3664157345234305476}
  m_Layer: 31
  m_Name: Layer1
  m_TagString: Untagged
  m_Icon: {fileID: 0}
  m_NavMeshLayer: 0
  m_StaticEditorFlags: 0
  m_IsActive: 1
--- !u!4 &4921119137224694
Transform:
  m_ObjectHideFlags: 1
  m_PrefabParentObject: {fileID: 0}
  m_PrefabInternal: {fileID: 100100000}
  m_GameObject: {fileID: 1063210774354640}
  m_LocalRotation: {x: 0, y: 0, z: 0, w: 1}
  m_LocalPosition: {x: 0, y: 0, z: 0}
  m_LocalScale: {x: 1, y: 1, z: 1}
  m_Children:
  - {fileID: 4999090670787532}
  m_Father: {fileID: 0}
  m_RootOrder: 0
  m_LocalEulerAnglesHint: {x: 0, y: 0, z: 0}
--- !u!4 &4999090670787532
Transform:
  m_ObjectHideFlags: 1
  m_PrefabParentObject: {fileID: 0}
  m_PrefabInternal: {fileID: 100100000}
  m_GameObject: {fileID: 1515508775567028}
  m_LocalRotation: {x: -0, y: -0, z: -0, w: 1}
  m_LocalPosition: {x: 0, y: 0, z: 0}
  m_LocalScale: {x: 1, y: 1, z: 1}
  m_Children: []
  m_Father: {fileID: 4921119137224694}
  m_RootOrder: 0
  m_LocalEulerAnglesHint: {x: 0, y: 0, z: 0}
--- !u!114 &114174269926634104
MonoBehaviour:
  m_ObjectHideFlags: 0
  m_PrefabParentObject: {fileID: 0}
  m_PrefabInternal: {fileID: 0}
  m_GameObject: {fileID: 0}
  m_Enabled: 1
  m_EditorHideFlags: 1
  m_Script: {fileID: 12395, guid: 0000000000000000e000000000000000, type: 0}
  m_Name: Palette Settings
  m_EditorClassIdentifier: 
  cellSizing: 0
--- !u!156049354 &2569400268331065354
Grid:
  m_ObjectHideFlags: 1
  m_PrefabParentObject: {fileID: 0}
  m_PrefabInternal: {fileID: 100100000}
  m_GameObject: {fileID: 1063210774354640}
  m_Enabled: 1
  m_CellSize: {x: 0.7, y: 0.7, z: 0}
  m_CellGap: {x: 0, y: 0, z: 0}
  m_CellLayout: 0
  m_CellSwizzle: 0
--- !u!483693784 &3664157345234305476
TilemapRenderer:
  m_ObjectHideFlags: 1
  m_PrefabParentObject: {fileID: 0}
  m_PrefabInternal: {fileID: 100100000}
  m_GameObject: {fileID: 1515508775567028}
  m_Enabled: 0
  m_CastShadows: 0
  m_ReceiveShadows: 0
  m_DynamicOccludee: 0
  m_MotionVectors: 1
  m_LightProbeUsage: 0
  m_ReflectionProbeUsage: 0
  m_Materials:
  - {fileID: 10754, guid: 0000000000000000f000000000000000, type: 0}
  m_StaticBatchInfo:
    firstSubMesh: 0
    subMeshCount: 0
  m_StaticBatchRoot: {fileID: 0}
  m_ProbeAnchor: {fileID: 0}
  m_LightProbeVolumeOverride: {fileID: 0}
  m_ScaleInLightmap: 1
  m_PreserveUVs: 0
  m_IgnoreNormalsForChartDetection: 0
  m_ImportantGI: 0
  m_StitchLightmapSeams: 0
  m_SelectedEditorRenderState: 0
  m_MinimumChartSize: 4
  m_AutoUVMaxDistance: 0.5
  m_AutoUVMaxAngle: 89
  m_LightmapParameters: {fileID: 0}
  m_SortingLayerID: 0
  m_SortingLayer: 0
  m_SortingOrder: 0
  m_ChunkSize: {x: 32, y: 32, z: 32}
  m_MaxChunkCount: 16
  m_MaxFrameAge: 16
  m_SortOrder: 0
  m_MaskInteraction: 0
--- !u!1839735485 &8195094281558370192
Tilemap:
  m_ObjectHideFlags: 1
  m_PrefabParentObject: {fileID: 0}
  m_PrefabInternal: {fileID: 100100000}
  m_GameObject: {fileID: 1515508775567028}
  m_Enabled: 1
  m_Tiles:
  - first: {x: -2, y: -10, z: 0}
    second:
      m_TileIndex: 168
      m_TileSpriteIndex: 168
      m_TileMatrixIndex: 0
      m_TileColorIndex: 0
      m_ObjectToInstantiate: {fileID: 0}
      m_TileFlags: 1
      m_ColliderType: 1
  - first: {x: -1, y: -10, z: 0}
    second:
      m_TileIndex: 169
      m_TileSpriteIndex: 169
      m_TileMatrixIndex: 0
      m_TileColorIndex: 0
      m_ObjectToInstantiate: {fileID: 0}
      m_TileFlags: 1
      m_ColliderType: 1
  - first: {x: 0, y: -10, z: 0}
    second:
      m_TileIndex: 170
      m_TileSpriteIndex: 170
      m_TileMatrixIndex: 0
      m_TileColorIndex: 0
      m_ObjectToInstantiate: {fileID: 0}
      m_TileFlags: 1
      m_ColliderType: 1
  - first: {x: 1, y: -10, z: 0}
    second:
      m_TileIndex: 171
      m_TileSpriteIndex: 171
      m_TileMatrixIndex: 0
      m_TileColorIndex: 0
      m_ObjectToInstantiate: {fileID: 0}
      m_TileFlags: 1
      m_ColliderType: 1
  - first: {x: -2, y: -9, z: 0}
    second:
      m_TileIndex: 154
      m_TileSpriteIndex: 154
      m_TileMatrixIndex: 0
      m_TileColorIndex: 0
      m_ObjectToInstantiate: {fileID: 0}
      m_TileFlags: 1
      m_ColliderType: 1
  - first: {x: -1, y: -9, z: 0}
    second:
      m_TileIndex: 155
      m_TileSpriteIndex: 155
      m_TileMatrixIndex: 0
      m_TileColorIndex: 0
      m_ObjectToInstantiate: {fileID: 0}
      m_TileFlags: 1
      m_ColliderType: 1
  - first: {x: 0, y: -9, z: 0}
    second:
      m_TileIndex: 156
      m_TileSpriteIndex: 156
      m_TileMatrixIndex: 0
      m_TileColorIndex: 0
      m_ObjectToInstantiate: {fileID: 0}
      m_TileFlags: 1
      m_ColliderType: 1
  - first: {x: 1, y: -9, z: 0}
    second:
      m_TileIndex: 157
      m_TileSpriteIndex: 157
      m_TileMatrixIndex: 0
      m_TileColorIndex: 0
      m_ObjectToInstantiate: {fileID: 0}
      m_TileFlags: 1
      m_ColliderType: 1
  - first: {x: 2, y: -9, z: 0}
    second:
      m_TileIndex: 158
      m_TileSpriteIndex: 158
      m_TileMatrixIndex: 0
      m_TileColorIndex: 0
      m_ObjectToInstantiate: {fileID: 0}
      m_TileFlags: 1
      m_ColliderType: 1
  - first: {x: 3, y: -9, z: 0}
    second:
      m_TileIndex: 159
      m_TileSpriteIndex: 159
      m_TileMatrixIndex: 0
      m_TileColorIndex: 0
      m_ObjectToInstantiate: {fileID: 0}
      m_TileFlags: 1
      m_ColliderType: 1
  - first: {x: 4, y: -9, z: 0}
    second:
      m_TileIndex: 160
      m_TileSpriteIndex: 160
      m_TileMatrixIndex: 0
      m_TileColorIndex: 0
      m_ObjectToInstantiate: {fileID: 0}
      m_TileFlags: 1
      m_ColliderType: 1
  - first: {x: 5, y: -9, z: 0}
    second:
      m_TileIndex: 161
      m_TileSpriteIndex: 161
      m_TileMatrixIndex: 0
      m_TileColorIndex: 0
      m_ObjectToInstantiate: {fileID: 0}
      m_TileFlags: 1
      m_ColliderType: 1
  - first: {x: 6, y: -9, z: 0}
    second:
      m_TileIndex: 162
      m_TileSpriteIndex: 162
      m_TileMatrixIndex: 0
      m_TileColorIndex: 0
      m_ObjectToInstantiate: {fileID: 0}
      m_TileFlags: 1
      m_ColliderType: 1
  - first: {x: 7, y: -9, z: 0}
    second:
      m_TileIndex: 163
      m_TileSpriteIndex: 163
      m_TileMatrixIndex: 0
      m_TileColorIndex: 0
      m_ObjectToInstantiate: {fileID: 0}
      m_TileFlags: 1
      m_ColliderType: 1
  - first: {x: 8, y: -9, z: 0}
    second:
      m_TileIndex: 164
      m_TileSpriteIndex: 164
      m_TileMatrixIndex: 0
      m_TileColorIndex: 0
      m_ObjectToInstantiate: {fileID: 0}
      m_TileFlags: 1
      m_ColliderType: 1
  - first: {x: 9, y: -9, z: 0}
    second:
      m_TileIndex: 165
      m_TileSpriteIndex: 165
      m_TileMatrixIndex: 0
      m_TileColorIndex: 0
      m_ObjectToInstantiate: {fileID: 0}
      m_TileFlags: 1
      m_ColliderType: 1
  - first: {x: 10, y: -9, z: 0}
    second:
      m_TileIndex: 166
      m_TileSpriteIndex: 166
      m_TileMatrixIndex: 0
      m_TileColorIndex: 0
      m_ObjectToInstantiate: {fileID: 0}
      m_TileFlags: 1
      m_ColliderType: 1
  - first: {x: 11, y: -9, z: 0}
    second:
      m_TileIndex: 167
      m_TileSpriteIndex: 167
      m_TileMatrixIndex: 0
      m_TileColorIndex: 0
      m_ObjectToInstantiate: {fileID: 0}
      m_TileFlags: 1
      m_ColliderType: 1
  - first: {x: -2, y: -8, z: 0}
    second:
      m_TileIndex: 140
      m_TileSpriteIndex: 140
      m_TileMatrixIndex: 0
      m_TileColorIndex: 0
      m_ObjectToInstantiate: {fileID: 0}
      m_TileFlags: 1
      m_ColliderType: 1
  - first: {x: -1, y: -8, z: 0}
    second:
      m_TileIndex: 141
      m_TileSpriteIndex: 141
      m_TileMatrixIndex: 0
      m_TileColorIndex: 0
      m_ObjectToInstantiate: {fileID: 0}
      m_TileFlags: 1
      m_ColliderType: 1
  - first: {x: 0, y: -8, z: 0}
    second:
      m_TileIndex: 142
      m_TileSpriteIndex: 142
      m_TileMatrixIndex: 0
      m_TileColorIndex: 0
      m_ObjectToInstantiate: {fileID: 0}
      m_TileFlags: 1
      m_ColliderType: 1
  - first: {x: 1, y: -8, z: 0}
    second:
      m_TileIndex: 143
      m_TileSpriteIndex: 143
      m_TileMatrixIndex: 0
      m_TileColorIndex: 0
      m_ObjectToInstantiate: {fileID: 0}
      m_TileFlags: 1
      m_ColliderType: 1
  - first: {x: 2, y: -8, z: 0}
    second:
      m_TileIndex: 144
      m_TileSpriteIndex: 144
      m_TileMatrixIndex: 0
      m_TileColorIndex: 0
      m_ObjectToInstantiate: {fileID: 0}
      m_TileFlags: 1
      m_ColliderType: 1
  - first: {x: 3, y: -8, z: 0}
    second:
      m_TileIndex: 145
      m_TileSpriteIndex: 145
      m_TileMatrixIndex: 0
      m_TileColorIndex: 0
      m_ObjectToInstantiate: {fileID: 0}
      m_TileFlags: 1
      m_ColliderType: 1
  - first: {x: 4, y: -8, z: 0}
    second:
      m_TileIndex: 146
      m_TileSpriteIndex: 146
      m_TileMatrixIndex: 0
      m_TileColorIndex: 0
      m_ObjectToInstantiate: {fileID: 0}
      m_TileFlags: 1
      m_ColliderType: 1
  - first: {x: 5, y: -8, z: 0}
    second:
      m_TileIndex: 147
      m_TileSpriteIndex: 147
      m_TileMatrixIndex: 0
      m_TileColorIndex: 0
      m_ObjectToInstantiate: {fileID: 0}
      m_TileFlags: 1
      m_ColliderType: 1
  - first: {x: 6, y: -8, z: 0}
    second:
      m_TileIndex: 148
      m_TileSpriteIndex: 148
      m_TileMatrixIndex: 0
      m_TileColorIndex: 0
      m_ObjectToInstantiate: {fileID: 0}
      m_TileFlags: 1
      m_ColliderType: 1
  - first: {x: 7, y: -8, z: 0}
    second:
      m_TileIndex: 149
      m_TileSpriteIndex: 149
      m_TileMatrixIndex: 0
      m_TileColorIndex: 0
      m_ObjectToInstantiate: {fileID: 0}
      m_TileFlags: 1
      m_ColliderType: 1
  - first: {x: 8, y: -8, z: 0}
    second:
      m_TileIndex: 150
      m_TileSpriteIndex: 150
      m_TileMatrixIndex: 0
      m_TileColorIndex: 0
      m_ObjectToInstantiate: {fileID: 0}
      m_TileFlags: 1
      m_ColliderType: 1
  - first: {x: 9, y: -8, z: 0}
    second:
      m_TileIndex: 151
      m_TileSpriteIndex: 151
      m_TileMatrixIndex: 0
      m_TileColorIndex: 0
      m_ObjectToInstantiate: {fileID: 0}
      m_TileFlags: 1
      m_ColliderType: 1
  - first: {x: 10, y: -8, z: 0}
    second:
      m_TileIndex: 152
      m_TileSpriteIndex: 152
      m_TileMatrixIndex: 0
      m_TileColorIndex: 0
      m_ObjectToInstantiate: {fileID: 0}
      m_TileFlags: 1
      m_ColliderType: 1
  - first: {x: 11, y: -8, z: 0}
    second:
      m_TileIndex: 153
      m_TileSpriteIndex: 153
      m_TileMatrixIndex: 0
      m_TileColorIndex: 0
      m_ObjectToInstantiate: {fileID: 0}
      m_TileFlags: 1
      m_ColliderType: 1
  - first: {x: -2, y: -7, z: 0}
    second:
      m_TileIndex: 126
      m_TileSpriteIndex: 126
      m_TileMatrixIndex: 0
      m_TileColorIndex: 0
      m_ObjectToInstantiate: {fileID: 0}
      m_TileFlags: 1
      m_ColliderType: 1
  - first: {x: -1, y: -7, z: 0}
    second:
      m_TileIndex: 127
      m_TileSpriteIndex: 127
      m_TileMatrixIndex: 0
      m_TileColorIndex: 0
      m_ObjectToInstantiate: {fileID: 0}
      m_TileFlags: 1
      m_ColliderType: 1
  - first: {x: 0, y: -7, z: 0}
    second:
      m_TileIndex: 128
      m_TileSpriteIndex: 128
      m_TileMatrixIndex: 0
      m_TileColorIndex: 0
      m_ObjectToInstantiate: {fileID: 0}
      m_TileFlags: 1
      m_ColliderType: 1
  - first: {x: 1, y: -7, z: 0}
    second:
      m_TileIndex: 129
      m_TileSpriteIndex: 129
      m_TileMatrixIndex: 0
      m_TileColorIndex: 0
      m_ObjectToInstantiate: {fileID: 0}
      m_TileFlags: 1
      m_ColliderType: 1
  - first: {x: 2, y: -7, z: 0}
    second:
      m_TileIndex: 130
      m_TileSpriteIndex: 130
      m_TileMatrixIndex: 0
      m_TileColorIndex: 0
      m_ObjectToInstantiate: {fileID: 0}
      m_TileFlags: 1
      m_ColliderType: 1
  - first: {x: 3, y: -7, z: 0}
    second:
      m_TileIndex: 131
      m_TileSpriteIndex: 131
      m_TileMatrixIndex: 0
      m_TileColorIndex: 0
      m_ObjectToInstantiate: {fileID: 0}
      m_TileFlags: 1
      m_ColliderType: 1
  - first: {x: 4, y: -7, z: 0}
    second:
      m_TileIndex: 132
      m_TileSpriteIndex: 132
      m_TileMatrixIndex: 0
      m_TileColorIndex: 0
      m_ObjectToInstantiate: {fileID: 0}
      m_TileFlags: 1
      m_ColliderType: 1
  - first: {x: 5, y: -7, z: 0}
    second:
      m_TileIndex: 133
      m_TileSpriteIndex: 133
      m_TileMatrixIndex: 0
      m_TileColorIndex: 0
      m_ObjectToInstantiate: {fileID: 0}
      m_TileFlags: 1
      m_ColliderType: 1
  - first: {x: 6, y: -7, z: 0}
    second:
      m_TileIndex: 134
      m_TileSpriteIndex: 134
      m_TileMatrixIndex: 0
      m_TileColorIndex: 0
      m_ObjectToInstantiate: {fileID: 0}
      m_TileFlags: 1
      m_ColliderType: 1
  - first: {x: 7, y: -7, z: 0}
    second:
      m_TileIndex: 135
      m_TileSpriteIndex: 135
      m_TileMatrixIndex: 0
      m_TileColorIndex: 0
      m_ObjectToInstantiate: {fileID: 0}
      m_TileFlags: 1
      m_ColliderType: 1
  - first: {x: 8, y: -7, z: 0}
    second:
      m_TileIndex: 136
      m_TileSpriteIndex: 136
      m_TileMatrixIndex: 0
      m_TileColorIndex: 0
      m_ObjectToInstantiate: {fileID: 0}
      m_TileFlags: 1
      m_ColliderType: 1
  - first: {x: 9, y: -7, z: 0}
    second:
      m_TileIndex: 137
      m_TileSpriteIndex: 137
      m_TileMatrixIndex: 0
      m_TileColorIndex: 0
      m_ObjectToInstantiate: {fileID: 0}
      m_TileFlags: 1
      m_ColliderType: 1
  - first: {x: 10, y: -7, z: 0}
    second:
      m_TileIndex: 138
      m_TileSpriteIndex: 138
      m_TileMatrixIndex: 0
      m_TileColorIndex: 0
      m_ObjectToInstantiate: {fileID: 0}
      m_TileFlags: 1
      m_ColliderType: 1
  - first: {x: 11, y: -7, z: 0}
    second:
      m_TileIndex: 139
      m_TileSpriteIndex: 139
      m_TileMatrixIndex: 0
      m_TileColorIndex: 0
      m_ObjectToInstantiate: {fileID: 0}
      m_TileFlags: 1
      m_ColliderType: 1
  - first: {x: -2, y: -6, z: 0}
    second:
      m_TileIndex: 112
      m_TileSpriteIndex: 112
      m_TileMatrixIndex: 0
      m_TileColorIndex: 0
      m_ObjectToInstantiate: {fileID: 0}
      m_TileFlags: 1
      m_ColliderType: 1
  - first: {x: -1, y: -6, z: 0}
    second:
      m_TileIndex: 113
      m_TileSpriteIndex: 113
      m_TileMatrixIndex: 0
      m_TileColorIndex: 0
      m_ObjectToInstantiate: {fileID: 0}
      m_TileFlags: 1
      m_ColliderType: 1
  - first: {x: 0, y: -6, z: 0}
    second:
      m_TileIndex: 114
      m_TileSpriteIndex: 114
      m_TileMatrixIndex: 0
      m_TileColorIndex: 0
      m_ObjectToInstantiate: {fileID: 0}
      m_TileFlags: 1
      m_ColliderType: 1
  - first: {x: 1, y: -6, z: 0}
    second:
      m_TileIndex: 115
      m_TileSpriteIndex: 115
      m_TileMatrixIndex: 0
      m_TileColorIndex: 0
      m_ObjectToInstantiate: {fileID: 0}
      m_TileFlags: 1
      m_ColliderType: 1
  - first: {x: 2, y: -6, z: 0}
    second:
      m_TileIndex: 116
      m_TileSpriteIndex: 116
      m_TileMatrixIndex: 0
      m_TileColorIndex: 0
      m_ObjectToInstantiate: {fileID: 0}
      m_TileFlags: 1
      m_ColliderType: 1
  - first: {x: 3, y: -6, z: 0}
    second:
      m_TileIndex: 117
      m_TileSpriteIndex: 117
      m_TileMatrixIndex: 0
      m_TileColorIndex: 0
      m_ObjectToInstantiate: {fileID: 0}
      m_TileFlags: 1
      m_ColliderType: 1
  - first: {x: 4, y: -6, z: 0}
    second:
      m_TileIndex: 118
      m_TileSpriteIndex: 118
      m_TileMatrixIndex: 0
      m_TileColorIndex: 0
      m_ObjectToInstantiate: {fileID: 0}
      m_TileFlags: 1
      m_ColliderType: 1
  - first: {x: 5, y: -6, z: 0}
    second:
      m_TileIndex: 119
      m_TileSpriteIndex: 119
      m_TileMatrixIndex: 0
      m_TileColorIndex: 0
      m_ObjectToInstantiate: {fileID: 0}
      m_TileFlags: 1
      m_ColliderType: 1
  - first: {x: 6, y: -6, z: 0}
    second:
      m_TileIndex: 120
      m_TileSpriteIndex: 120
      m_TileMatrixIndex: 0
      m_TileColorIndex: 0
      m_ObjectToInstantiate: {fileID: 0}
      m_TileFlags: 1
      m_ColliderType: 1
  - first: {x: 7, y: -6, z: 0}
    second:
      m_TileIndex: 121
      m_TileSpriteIndex: 121
      m_TileMatrixIndex: 0
      m_TileColorIndex: 0
      m_ObjectToInstantiate: {fileID: 0}
      m_TileFlags: 1
      m_ColliderType: 1
  - first: {x: 8, y: -6, z: 0}
    second:
      m_TileIndex: 122
      m_TileSpriteIndex: 122
      m_TileMatrixIndex: 0
      m_TileColorIndex: 0
      m_ObjectToInstantiate: {fileID: 0}
      m_TileFlags: 1
      m_ColliderType: 1
  - first: {x: 9, y: -6, z: 0}
    second:
      m_TileIndex: 123
      m_TileSpriteIndex: 123
      m_TileMatrixIndex: 0
      m_TileColorIndex: 0
      m_ObjectToInstantiate: {fileID: 0}
      m_TileFlags: 1
      m_ColliderType: 1
  - first: {x: 10, y: -6, z: 0}
    second:
      m_TileIndex: 124
      m_TileSpriteIndex: 124
      m_TileMatrixIndex: 0
      m_TileColorIndex: 0
      m_ObjectToInstantiate: {fileID: 0}
      m_TileFlags: 1
      m_ColliderType: 1
  - first: {x: 11, y: -6, z: 0}
    second:
      m_TileIndex: 125
      m_TileSpriteIndex: 125
      m_TileMatrixIndex: 0
      m_TileColorIndex: 0
      m_ObjectToInstantiate: {fileID: 0}
      m_TileFlags: 1
      m_ColliderType: 1
  - first: {x: -2, y: -5, z: 0}
    second:
      m_TileIndex: 98
      m_TileSpriteIndex: 98
      m_TileMatrixIndex: 0
      m_TileColorIndex: 0
      m_ObjectToInstantiate: {fileID: 0}
      m_TileFlags: 1
      m_ColliderType: 1
  - first: {x: -1, y: -5, z: 0}
    second:
      m_TileIndex: 99
      m_TileSpriteIndex: 99
      m_TileMatrixIndex: 0
      m_TileColorIndex: 0
      m_ObjectToInstantiate: {fileID: 0}
      m_TileFlags: 1
      m_ColliderType: 1
  - first: {x: 0, y: -5, z: 0}
    second:
      m_TileIndex: 100
      m_TileSpriteIndex: 100
      m_TileMatrixIndex: 0
      m_TileColorIndex: 0
      m_ObjectToInstantiate: {fileID: 0}
      m_TileFlags: 1
      m_ColliderType: 1
  - first: {x: 1, y: -5, z: 0}
    second:
      m_TileIndex: 101
      m_TileSpriteIndex: 101
      m_TileMatrixIndex: 0
      m_TileColorIndex: 0
      m_ObjectToInstantiate: {fileID: 0}
      m_TileFlags: 1
      m_ColliderType: 1
  - first: {x: 2, y: -5, z: 0}
    second:
      m_TileIndex: 102
      m_TileSpriteIndex: 102
      m_TileMatrixIndex: 0
      m_TileColorIndex: 0
      m_ObjectToInstantiate: {fileID: 0}
      m_TileFlags: 1
      m_ColliderType: 1
  - first: {x: 3, y: -5, z: 0}
    second:
      m_TileIndex: 103
      m_TileSpriteIndex: 103
      m_TileMatrixIndex: 0
      m_TileColorIndex: 0
      m_ObjectToInstantiate: {fileID: 0}
      m_TileFlags: 1
      m_ColliderType: 1
  - first: {x: 4, y: -5, z: 0}
    second:
      m_TileIndex: 104
      m_TileSpriteIndex: 104
      m_TileMatrixIndex: 0
      m_TileColorIndex: 0
      m_ObjectToInstantiate: {fileID: 0}
      m_TileFlags: 1
      m_ColliderType: 1
  - first: {x: 5, y: -5, z: 0}
    second:
      m_TileIndex: 105
      m_TileSpriteIndex: 105
      m_TileMatrixIndex: 0
      m_TileColorIndex: 0
      m_ObjectToInstantiate: {fileID: 0}
      m_TileFlags: 1
      m_ColliderType: 1
  - first: {x: 6, y: -5, z: 0}
    second:
      m_TileIndex: 106
      m_TileSpriteIndex: 106
      m_TileMatrixIndex: 0
      m_TileColorIndex: 0
      m_ObjectToInstantiate: {fileID: 0}
      m_TileFlags: 1
      m_ColliderType: 1
  - first: {x: 7, y: -5, z: 0}
    second:
      m_TileIndex: 107
      m_TileSpriteIndex: 107
      m_TileMatrixIndex: 0
      m_TileColorIndex: 0
      m_ObjectToInstantiate: {fileID: 0}
      m_TileFlags: 1
      m_ColliderType: 1
  - first: {x: 8, y: -5, z: 0}
    second:
      m_TileIndex: 108
      m_TileSpriteIndex: 108
      m_TileMatrixIndex: 0
      m_TileColorIndex: 0
      m_ObjectToInstantiate: {fileID: 0}
      m_TileFlags: 1
      m_ColliderType: 1
  - first: {x: 9, y: -5, z: 0}
    second:
      m_TileIndex: 109
      m_TileSpriteIndex: 109
      m_TileMatrixIndex: 0
      m_TileColorIndex: 0
      m_ObjectToInstantiate: {fileID: 0}
      m_TileFlags: 1
      m_ColliderType: 1
  - first: {x: 10, y: -5, z: 0}
    second:
      m_TileIndex: 110
      m_TileSpriteIndex: 110
      m_TileMatrixIndex: 0
      m_TileColorIndex: 0
      m_ObjectToInstantiate: {fileID: 0}
      m_TileFlags: 1
      m_ColliderType: 1
  - first: {x: 11, y: -5, z: 0}
    second:
      m_TileIndex: 111
      m_TileSpriteIndex: 111
      m_TileMatrixIndex: 0
      m_TileColorIndex: 0
      m_ObjectToInstantiate: {fileID: 0}
      m_TileFlags: 1
      m_ColliderType: 1
  - first: {x: -2, y: -4, z: 0}
    second:
      m_TileIndex: 84
      m_TileSpriteIndex: 84
      m_TileMatrixIndex: 0
      m_TileColorIndex: 0
      m_ObjectToInstantiate: {fileID: 0}
      m_TileFlags: 1
      m_ColliderType: 1
  - first: {x: 3, y: -4, z: 0}
    second:
      m_TileIndex: 89
      m_TileSpriteIndex: 89
      m_TileMatrixIndex: 0
      m_TileColorIndex: 0
      m_ObjectToInstantiate: {fileID: 0}
      m_TileFlags: 1
      m_ColliderType: 1
  - first: {x: 4, y: -4, z: 0}
    second:
      m_TileIndex: 90
      m_TileSpriteIndex: 90
      m_TileMatrixIndex: 0
      m_TileColorIndex: 0
      m_ObjectToInstantiate: {fileID: 0}
      m_TileFlags: 1
      m_ColliderType: 1
  - first: {x: 5, y: -4, z: 0}
    second:
      m_TileIndex: 91
      m_TileSpriteIndex: 91
      m_TileMatrixIndex: 0
      m_TileColorIndex: 0
      m_ObjectToInstantiate: {fileID: 0}
      m_TileFlags: 1
      m_ColliderType: 1
  - first: {x: 6, y: -4, z: 0}
    second:
      m_TileIndex: 92
      m_TileSpriteIndex: 92
      m_TileMatrixIndex: 0
      m_TileColorIndex: 0
      m_ObjectToInstantiate: {fileID: 0}
      m_TileFlags: 1
      m_ColliderType: 1
  - first: {x: 7, y: -4, z: 0}
    second:
      m_TileIndex: 93
      m_TileSpriteIndex: 93
      m_TileMatrixIndex: 0
      m_TileColorIndex: 0
      m_ObjectToInstantiate: {fileID: 0}
      m_TileFlags: 1
      m_ColliderType: 1
  - first: {x: 8, y: -4, z: 0}
    second:
      m_TileIndex: 94
      m_TileSpriteIndex: 94
      m_TileMatrixIndex: 0
      m_TileColorIndex: 0
      m_ObjectToInstantiate: {fileID: 0}
      m_TileFlags: 1
      m_ColliderType: 1
  - first: {x: 9, y: -4, z: 0}
    second:
      m_TileIndex: 95
      m_TileSpriteIndex: 95
      m_TileMatrixIndex: 0
      m_TileColorIndex: 0
      m_ObjectToInstantiate: {fileID: 0}
      m_TileFlags: 1
      m_ColliderType: 1
  - first: {x: 10, y: -4, z: 0}
    second:
      m_TileIndex: 96
      m_TileSpriteIndex: 96
      m_TileMatrixIndex: 0
      m_TileColorIndex: 0
      m_ObjectToInstantiate: {fileID: 0}
      m_TileFlags: 1
      m_ColliderType: 1
  - first: {x: 11, y: -4, z: 0}
    second:
      m_TileIndex: 97
      m_TileSpriteIndex: 97
      m_TileMatrixIndex: 0
      m_TileColorIndex: 0
      m_ObjectToInstantiate: {fileID: 0}
      m_TileFlags: 1
      m_ColliderType: 1
  - first: {x: -2, y: -3, z: 0}
    second:
      m_TileIndex: 70
      m_TileSpriteIndex: 70
      m_TileMatrixIndex: 0
      m_TileColorIndex: 0
      m_ObjectToInstantiate: {fileID: 0}
      m_TileFlags: 1
      m_ColliderType: 1
  - first: {x: -1, y: -3, z: 0}
    second:
      m_TileIndex: 71
      m_TileSpriteIndex: 71
      m_TileMatrixIndex: 0
      m_TileColorIndex: 0
      m_ObjectToInstantiate: {fileID: 0}
      m_TileFlags: 1
      m_ColliderType: 1
  - first: {x: 0, y: -3, z: 0}
    second:
      m_TileIndex: 72
      m_TileSpriteIndex: 72
      m_TileMatrixIndex: 0
      m_TileColorIndex: 0
      m_ObjectToInstantiate: {fileID: 0}
      m_TileFlags: 1
      m_ColliderType: 1
  - first: {x: 1, y: -3, z: 0}
    second:
      m_TileIndex: 73
      m_TileSpriteIndex: 73
      m_TileMatrixIndex: 0
      m_TileColorIndex: 0
      m_ObjectToInstantiate: {fileID: 0}
      m_TileFlags: 1
      m_ColliderType: 1
  - first: {x: 2, y: -3, z: 0}
    second:
      m_TileIndex: 74
      m_TileSpriteIndex: 88
      m_TileMatrixIndex: 0
      m_TileColorIndex: 0
      m_ObjectToInstantiate: {fileID: 0}
      m_TileFlags: 1
      m_ColliderType: 1
  - first: {x: 3, y: -3, z: 0}
    second:
      m_TileIndex: 75
      m_TileSpriteIndex: 75
      m_TileMatrixIndex: 0
      m_TileColorIndex: 0
      m_ObjectToInstantiate: {fileID: 0}
      m_TileFlags: 1
      m_ColliderType: 1
  - first: {x: 4, y: -3, z: 0}
    second:
      m_TileIndex: 76
      m_TileSpriteIndex: 76
      m_TileMatrixIndex: 0
      m_TileColorIndex: 0
      m_ObjectToInstantiate: {fileID: 0}
      m_TileFlags: 1
      m_ColliderType: 1
  - first: {x: 5, y: -3, z: 0}
    second:
      m_TileIndex: 77
      m_TileSpriteIndex: 77
      m_TileMatrixIndex: 0
      m_TileColorIndex: 0
      m_ObjectToInstantiate: {fileID: 0}
      m_TileFlags: 1
      m_ColliderType: 1
  - first: {x: 6, y: -3, z: 0}
    second:
      m_TileIndex: 78
      m_TileSpriteIndex: 78
      m_TileMatrixIndex: 0
      m_TileColorIndex: 0
      m_ObjectToInstantiate: {fileID: 0}
      m_TileFlags: 1
      m_ColliderType: 1
  - first: {x: 7, y: -3, z: 0}
    second:
      m_TileIndex: 79
      m_TileSpriteIndex: 79
      m_TileMatrixIndex: 0
      m_TileColorIndex: 0
      m_ObjectToInstantiate: {fileID: 0}
      m_TileFlags: 1
      m_ColliderType: 1
  - first: {x: 8, y: -3, z: 0}
    second:
      m_TileIndex: 80
      m_TileSpriteIndex: 80
      m_TileMatrixIndex: 0
      m_TileColorIndex: 0
      m_ObjectToInstantiate: {fileID: 0}
      m_TileFlags: 1
      m_ColliderType: 1
  - first: {x: 9, y: -3, z: 0}
    second:
      m_TileIndex: 81
      m_TileSpriteIndex: 81
      m_TileMatrixIndex: 0
      m_TileColorIndex: 0
      m_ObjectToInstantiate: {fileID: 0}
      m_TileFlags: 1
      m_ColliderType: 1
  - first: {x: 10, y: -3, z: 0}
    second:
      m_TileIndex: 82
      m_TileSpriteIndex: 82
      m_TileMatrixIndex: 0
      m_TileColorIndex: 0
      m_ObjectToInstantiate: {fileID: 0}
      m_TileFlags: 1
      m_ColliderType: 1
  - first: {x: 11, y: -3, z: 0}
    second:
      m_TileIndex: 83
      m_TileSpriteIndex: 83
      m_TileMatrixIndex: 0
      m_TileColorIndex: 0
      m_ObjectToInstantiate: {fileID: 0}
      m_TileFlags: 1
      m_ColliderType: 1
  - first: {x: -2, y: -2, z: 0}
    second:
      m_TileIndex: 56
      m_TileSpriteIndex: 56
      m_TileMatrixIndex: 0
      m_TileColorIndex: 0
      m_ObjectToInstantiate: {fileID: 0}
      m_TileFlags: 1
      m_ColliderType: 1
  - first: {x: -1, y: -2, z: 0}
    second:
      m_TileIndex: 57
      m_TileSpriteIndex: 86
      m_TileMatrixIndex: 0
      m_TileColorIndex: 0
      m_ObjectToInstantiate: {fileID: 0}
      m_TileFlags: 1
      m_ColliderType: 1
  - first: {x: 0, y: -2, z: 0}
    second:
      m_TileIndex: 58
      m_TileSpriteIndex: 85
      m_TileMatrixIndex: 0
      m_TileColorIndex: 0
      m_ObjectToInstantiate: {fileID: 0}
      m_TileFlags: 1
      m_ColliderType: 1
  - first: {x: 1, y: -2, z: 0}
    second:
      m_TileIndex: 59
      m_TileSpriteIndex: 59
      m_TileMatrixIndex: 0
      m_TileColorIndex: 0
      m_ObjectToInstantiate: {fileID: 0}
      m_TileFlags: 1
      m_ColliderType: 1
  - first: {x: 2, y: -2, z: 0}
    second:
      m_TileIndex: 60
      m_TileSpriteIndex: 60
      m_TileMatrixIndex: 0
      m_TileColorIndex: 0
      m_ObjectToInstantiate: {fileID: 0}
      m_TileFlags: 1
      m_ColliderType: 1
  - first: {x: 3, y: -2, z: 0}
    second:
      m_TileIndex: 61
      m_TileSpriteIndex: 61
      m_TileMatrixIndex: 0
      m_TileColorIndex: 0
      m_ObjectToInstantiate: {fileID: 0}
      m_TileFlags: 1
      m_ColliderType: 1
  - first: {x: 4, y: -2, z: 0}
    second:
      m_TileIndex: 62
      m_TileSpriteIndex: 62
      m_TileMatrixIndex: 0
      m_TileColorIndex: 0
      m_ObjectToInstantiate: {fileID: 0}
      m_TileFlags: 1
      m_ColliderType: 1
  - first: {x: 5, y: -2, z: 0}
    second:
      m_TileIndex: 63
      m_TileSpriteIndex: 63
      m_TileMatrixIndex: 0
      m_TileColorIndex: 0
      m_ObjectToInstantiate: {fileID: 0}
      m_TileFlags: 1
      m_ColliderType: 1
  - first: {x: 6, y: -2, z: 0}
    second:
      m_TileIndex: 64
      m_TileSpriteIndex: 64
      m_TileMatrixIndex: 0
      m_TileColorIndex: 0
      m_ObjectToInstantiate: {fileID: 0}
      m_TileFlags: 1
      m_ColliderType: 1
  - first: {x: 7, y: -2, z: 0}
    second:
      m_TileIndex: 65
      m_TileSpriteIndex: 65
      m_TileMatrixIndex: 0
      m_TileColorIndex: 0
      m_ObjectToInstantiate: {fileID: 0}
      m_TileFlags: 1
      m_ColliderType: 1
  - first: {x: 8, y: -2, z: 0}
    second:
      m_TileIndex: 66
      m_TileSpriteIndex: 66
      m_TileMatrixIndex: 0
      m_TileColorIndex: 0
      m_ObjectToInstantiate: {fileID: 0}
      m_TileFlags: 1
      m_ColliderType: 1
  - first: {x: 9, y: -2, z: 0}
    second:
      m_TileIndex: 67
      m_TileSpriteIndex: 67
      m_TileMatrixIndex: 0
      m_TileColorIndex: 0
      m_ObjectToInstantiate: {fileID: 0}
      m_TileFlags: 1
      m_ColliderType: 1
  - first: {x: 10, y: -2, z: 0}
    second:
      m_TileIndex: 68
      m_TileSpriteIndex: 68
      m_TileMatrixIndex: 0
      m_TileColorIndex: 0
      m_ObjectToInstantiate: {fileID: 0}
      m_TileFlags: 1
      m_ColliderType: 1
  - first: {x: 11, y: -2, z: 0}
    second:
      m_TileIndex: 69
      m_TileSpriteIndex: 69
      m_TileMatrixIndex: 0
      m_TileColorIndex: 0
      m_ObjectToInstantiate: {fileID: 0}
      m_TileFlags: 1
      m_ColliderType: 1
  - first: {x: -2, y: -1, z: 0}
    second:
      m_TileIndex: 42
      m_TileSpriteIndex: 42
      m_TileMatrixIndex: 0
      m_TileColorIndex: 0
      m_ObjectToInstantiate: {fileID: 0}
      m_TileFlags: 1
      m_ColliderType: 1
  - first: {x: -1, y: -1, z: 0}
    second:
      m_TileIndex: 43
      m_TileSpriteIndex: 43
      m_TileMatrixIndex: 0
      m_TileColorIndex: 0
      m_ObjectToInstantiate: {fileID: 0}
      m_TileFlags: 1
      m_ColliderType: 1
  - first: {x: 0, y: -1, z: 0}
    second:
      m_TileIndex: 44
      m_TileSpriteIndex: 44
      m_TileMatrixIndex: 0
      m_TileColorIndex: 0
      m_ObjectToInstantiate: {fileID: 0}
      m_TileFlags: 1
      m_ColliderType: 1
  - first: {x: 1, y: -1, z: 0}
    second:
      m_TileIndex: 45
      m_TileSpriteIndex: 45
      m_TileMatrixIndex: 0
      m_TileColorIndex: 0
      m_ObjectToInstantiate: {fileID: 0}
      m_TileFlags: 1
      m_ColliderType: 1
  - first: {x: 2, y: -1, z: 0}
    second:
      m_TileIndex: 46
      m_TileSpriteIndex: 87
      m_TileMatrixIndex: 0
      m_TileColorIndex: 0
      m_ObjectToInstantiate: {fileID: 0}
      m_TileFlags: 1
      m_ColliderType: 1
  - first: {x: 3, y: -1, z: 0}
    second:
      m_TileIndex: 47
      m_TileSpriteIndex: 47
      m_TileMatrixIndex: 0
      m_TileColorIndex: 0
      m_ObjectToInstantiate: {fileID: 0}
      m_TileFlags: 1
      m_ColliderType: 1
  - first: {x: 4, y: -1, z: 0}
    second:
      m_TileIndex: 48
      m_TileSpriteIndex: 48
      m_TileMatrixIndex: 0
      m_TileColorIndex: 0
      m_ObjectToInstantiate: {fileID: 0}
      m_TileFlags: 1
      m_ColliderType: 1
  - first: {x: 5, y: -1, z: 0}
    second:
      m_TileIndex: 49
      m_TileSpriteIndex: 49
      m_TileMatrixIndex: 0
      m_TileColorIndex: 0
      m_ObjectToInstantiate: {fileID: 0}
      m_TileFlags: 1
      m_ColliderType: 1
  - first: {x: 6, y: -1, z: 0}
    second:
      m_TileIndex: 50
      m_TileSpriteIndex: 50
      m_TileMatrixIndex: 0
      m_TileColorIndex: 0
      m_ObjectToInstantiate: {fileID: 0}
      m_TileFlags: 1
      m_ColliderType: 1
  - first: {x: 7, y: -1, z: 0}
    second:
      m_TileIndex: 51
      m_TileSpriteIndex: 51
      m_TileMatrixIndex: 0
      m_TileColorIndex: 0
      m_ObjectToInstantiate: {fileID: 0}
      m_TileFlags: 1
      m_ColliderType: 1
  - first: {x: 8, y: -1, z: 0}
    second:
      m_TileIndex: 52
      m_TileSpriteIndex: 52
      m_TileMatrixIndex: 0
      m_TileColorIndex: 0
      m_ObjectToInstantiate: {fileID: 0}
      m_TileFlags: 1
      m_ColliderType: 1
  - first: {x: 9, y: -1, z: 0}
    second:
      m_TileIndex: 53
      m_TileSpriteIndex: 53
      m_TileMatrixIndex: 0
      m_TileColorIndex: 0
      m_ObjectToInstantiate: {fileID: 0}
      m_TileFlags: 1
      m_ColliderType: 1
  - first: {x: 10, y: -1, z: 0}
    second:
      m_TileIndex: 54
      m_TileSpriteIndex: 54
      m_TileMatrixIndex: 0
      m_TileColorIndex: 0
      m_ObjectToInstantiate: {fileID: 0}
      m_TileFlags: 1
      m_ColliderType: 1
  - first: {x: 11, y: -1, z: 0}
    second:
      m_TileIndex: 55
      m_TileSpriteIndex: 55
      m_TileMatrixIndex: 0
      m_TileColorIndex: 0
      m_ObjectToInstantiate: {fileID: 0}
      m_TileFlags: 1
      m_ColliderType: 1
  - first: {x: -2, y: 0, z: 0}
    second:
      m_TileIndex: 28
      m_TileSpriteIndex: 28
      m_TileMatrixIndex: 0
      m_TileColorIndex: 0
      m_ObjectToInstantiate: {fileID: 0}
      m_TileFlags: 1
      m_ColliderType: 1
  - first: {x: -1, y: 0, z: 0}
    second:
      m_TileIndex: 29
      m_TileSpriteIndex: 29
      m_TileMatrixIndex: 0
      m_TileColorIndex: 0
      m_ObjectToInstantiate: {fileID: 0}
      m_TileFlags: 1
      m_ColliderType: 1
  - first: {x: 0, y: 0, z: 0}
    second:
      m_TileIndex: 30
      m_TileSpriteIndex: 30
      m_TileMatrixIndex: 0
      m_TileColorIndex: 0
      m_ObjectToInstantiate: {fileID: 0}
      m_TileFlags: 1
      m_ColliderType: 1
  - first: {x: 1, y: 0, z: 0}
    second:
      m_TileIndex: 31
      m_TileSpriteIndex: 31
      m_TileMatrixIndex: 0
      m_TileColorIndex: 0
      m_ObjectToInstantiate: {fileID: 0}
      m_TileFlags: 1
      m_ColliderType: 1
  - first: {x: 2, y: 0, z: 0}
    second:
      m_TileIndex: 32
      m_TileSpriteIndex: 32
      m_TileMatrixIndex: 0
      m_TileColorIndex: 0
      m_ObjectToInstantiate: {fileID: 0}
      m_TileFlags: 1
      m_ColliderType: 1
  - first: {x: 3, y: 0, z: 0}
    second:
      m_TileIndex: 33
      m_TileSpriteIndex: 33
      m_TileMatrixIndex: 0
      m_TileColorIndex: 0
      m_ObjectToInstantiate: {fileID: 0}
      m_TileFlags: 1
      m_ColliderType: 1
  - first: {x: 4, y: 0, z: 0}
    second:
      m_TileIndex: 34
      m_TileSpriteIndex: 34
      m_TileMatrixIndex: 0
      m_TileColorIndex: 0
      m_ObjectToInstantiate: {fileID: 0}
      m_TileFlags: 1
      m_ColliderType: 1
  - first: {x: 5, y: 0, z: 0}
    second:
      m_TileIndex: 35
      m_TileSpriteIndex: 35
      m_TileMatrixIndex: 0
      m_TileColorIndex: 0
      m_ObjectToInstantiate: {fileID: 0}
      m_TileFlags: 1
      m_ColliderType: 1
  - first: {x: 6, y: 0, z: 0}
    second:
      m_TileIndex: 36
      m_TileSpriteIndex: 36
      m_TileMatrixIndex: 0
      m_TileColorIndex: 0
      m_ObjectToInstantiate: {fileID: 0}
      m_TileFlags: 1
      m_ColliderType: 1
  - first: {x: 7, y: 0, z: 0}
    second:
      m_TileIndex: 37
      m_TileSpriteIndex: 37
      m_TileMatrixIndex: 0
      m_TileColorIndex: 0
      m_ObjectToInstantiate: {fileID: 0}
      m_TileFlags: 1
      m_ColliderType: 1
  - first: {x: 8, y: 0, z: 0}
    second:
      m_TileIndex: 38
      m_TileSpriteIndex: 38
      m_TileMatrixIndex: 0
      m_TileColorIndex: 0
      m_ObjectToInstantiate: {fileID: 0}
      m_TileFlags: 1
      m_ColliderType: 1
  - first: {x: 9, y: 0, z: 0}
    second:
      m_TileIndex: 39
      m_TileSpriteIndex: 39
      m_TileMatrixIndex: 0
      m_TileColorIndex: 0
      m_ObjectToInstantiate: {fileID: 0}
      m_TileFlags: 1
      m_ColliderType: 1
  - first: {x: 10, y: 0, z: 0}
    second:
      m_TileIndex: 40
      m_TileSpriteIndex: 40
      m_TileMatrixIndex: 0
      m_TileColorIndex: 0
      m_ObjectToInstantiate: {fileID: 0}
      m_TileFlags: 1
      m_ColliderType: 1
  - first: {x: 11, y: 0, z: 0}
    second:
      m_TileIndex: 41
      m_TileSpriteIndex: 41
      m_TileMatrixIndex: 0
      m_TileColorIndex: 0
      m_ObjectToInstantiate: {fileID: 0}
      m_TileFlags: 1
      m_ColliderType: 1
  - first: {x: -2, y: 1, z: 0}
    second:
      m_TileIndex: 14
      m_TileSpriteIndex: 14
      m_TileMatrixIndex: 0
      m_TileColorIndex: 0
      m_ObjectToInstantiate: {fileID: 0}
      m_TileFlags: 1
      m_ColliderType: 1
  - first: {x: -1, y: 1, z: 0}
    second:
      m_TileIndex: 15
      m_TileSpriteIndex: 15
      m_TileMatrixIndex: 0
      m_TileColorIndex: 0
      m_ObjectToInstantiate: {fileID: 0}
      m_TileFlags: 1
      m_ColliderType: 1
  - first: {x: 0, y: 1, z: 0}
    second:
      m_TileIndex: 16
      m_TileSpriteIndex: 16
      m_TileMatrixIndex: 0
      m_TileColorIndex: 0
      m_ObjectToInstantiate: {fileID: 0}
      m_TileFlags: 1
      m_ColliderType: 1
  - first: {x: 1, y: 1, z: 0}
    second:
      m_TileIndex: 17
      m_TileSpriteIndex: 17
      m_TileMatrixIndex: 0
      m_TileColorIndex: 0
      m_ObjectToInstantiate: {fileID: 0}
      m_TileFlags: 1
      m_ColliderType: 1
  - first: {x: 2, y: 1, z: 0}
    second:
      m_TileIndex: 18
      m_TileSpriteIndex: 18
      m_TileMatrixIndex: 0
      m_TileColorIndex: 0
      m_ObjectToInstantiate: {fileID: 0}
      m_TileFlags: 1
      m_ColliderType: 1
  - first: {x: 3, y: 1, z: 0}
    second:
      m_TileIndex: 19
      m_TileSpriteIndex: 19
      m_TileMatrixIndex: 0
      m_TileColorIndex: 0
      m_ObjectToInstantiate: {fileID: 0}
      m_TileFlags: 1
      m_ColliderType: 1
  - first: {x: 4, y: 1, z: 0}
    second:
      m_TileIndex: 20
      m_TileSpriteIndex: 20
      m_TileMatrixIndex: 0
      m_TileColorIndex: 0
      m_ObjectToInstantiate: {fileID: 0}
      m_TileFlags: 1
      m_ColliderType: 1
  - first: {x: 5, y: 1, z: 0}
    second:
      m_TileIndex: 21
      m_TileSpriteIndex: 57
      m_TileMatrixIndex: 0
      m_TileColorIndex: 0
      m_ObjectToInstantiate: {fileID: 0}
      m_TileFlags: 1
      m_ColliderType: 1
  - first: {x: 6, y: 1, z: 0}
    second:
      m_TileIndex: 22
      m_TileSpriteIndex: 22
      m_TileMatrixIndex: 0
      m_TileColorIndex: 0
      m_ObjectToInstantiate: {fileID: 0}
      m_TileFlags: 1
      m_ColliderType: 1
  - first: {x: 7, y: 1, z: 0}
    second:
      m_TileIndex: 23
      m_TileSpriteIndex: 23
      m_TileMatrixIndex: 0
      m_TileColorIndex: 0
      m_ObjectToInstantiate: {fileID: 0}
      m_TileFlags: 1
      m_ColliderType: 1
  - first: {x: 8, y: 1, z: 0}
    second:
      m_TileIndex: 24
      m_TileSpriteIndex: 24
      m_TileMatrixIndex: 0
      m_TileColorIndex: 0
      m_ObjectToInstantiate: {fileID: 0}
      m_TileFlags: 1
      m_ColliderType: 1
  - first: {x: 9, y: 1, z: 0}
    second:
      m_TileIndex: 25
      m_TileSpriteIndex: 25
      m_TileMatrixIndex: 0
      m_TileColorIndex: 0
      m_ObjectToInstantiate: {fileID: 0}
      m_TileFlags: 1
      m_ColliderType: 1
  - first: {x: 10, y: 1, z: 0}
    second:
      m_TileIndex: 26
      m_TileSpriteIndex: 26
      m_TileMatrixIndex: 0
      m_TileColorIndex: 0
      m_ObjectToInstantiate: {fileID: 0}
      m_TileFlags: 1
      m_ColliderType: 1
  - first: {x: 11, y: 1, z: 0}
    second:
      m_TileIndex: 27
      m_TileSpriteIndex: 27
      m_TileMatrixIndex: 0
      m_TileColorIndex: 0
      m_ObjectToInstantiate: {fileID: 0}
      m_TileFlags: 1
      m_ColliderType: 1
  - first: {x: -2, y: 2, z: 0}
    second:
      m_TileIndex: 0
      m_TileSpriteIndex: 11
      m_TileMatrixIndex: 0
      m_TileColorIndex: 0
      m_ObjectToInstantiate: {fileID: 0}
      m_TileFlags: 1
      m_ColliderType: 1
  - first: {x: -1, y: 2, z: 0}
    second:
      m_TileIndex: 1
      m_TileSpriteIndex: 10
      m_TileMatrixIndex: 0
      m_TileColorIndex: 0
      m_ObjectToInstantiate: {fileID: 0}
      m_TileFlags: 1
      m_ColliderType: 1
  - first: {x: 0, y: 2, z: 0}
    second:
      m_TileIndex: 2
      m_TileSpriteIndex: 9
      m_TileMatrixIndex: 0
      m_TileColorIndex: 0
      m_ObjectToInstantiate: {fileID: 0}
      m_TileFlags: 1
      m_ColliderType: 1
  - first: {x: 1, y: 2, z: 0}
    second:
      m_TileIndex: 3
      m_TileSpriteIndex: 7
      m_TileMatrixIndex: 0
      m_TileColorIndex: 0
      m_ObjectToInstantiate: {fileID: 0}
      m_TileFlags: 1
      m_ColliderType: 1
  - first: {x: 2, y: 2, z: 0}
    second:
      m_TileIndex: 4
      m_TileSpriteIndex: 4
      m_TileMatrixIndex: 0
      m_TileColorIndex: 0
      m_ObjectToInstantiate: {fileID: 0}
      m_TileFlags: 1
      m_ColliderType: 1
  - first: {x: 3, y: 2, z: 0}
    second:
      m_TileIndex: 5
      m_TileSpriteIndex: 5
      m_TileMatrixIndex: 0
      m_TileColorIndex: 0
      m_ObjectToInstantiate: {fileID: 0}
      m_TileFlags: 1
      m_ColliderType: 1
  - first: {x: 4, y: 2, z: 0}
    second:
      m_TileIndex: 6
      m_TileSpriteIndex: 6
      m_TileMatrixIndex: 0
      m_TileColorIndex: 0
      m_ObjectToInstantiate: {fileID: 0}
      m_TileFlags: 1
      m_ColliderType: 1
  - first: {x: 5, y: 2, z: 0}
    second:
      m_TileIndex: 7
      m_TileSpriteIndex: 58
      m_TileMatrixIndex: 0
      m_TileColorIndex: 0
      m_ObjectToInstantiate: {fileID: 0}
      m_TileFlags: 1
      m_ColliderType: 1
  - first: {x: 6, y: 2, z: 0}
    second:
      m_TileIndex: 8
      m_TileSpriteIndex: 8
      m_TileMatrixIndex: 0
      m_TileColorIndex: 0
      m_ObjectToInstantiate: {fileID: 0}
      m_TileFlags: 1
      m_ColliderType: 1
  - first: {x: 7, y: 2, z: 0}
    second:
      m_TileIndex: 9
      m_TileSpriteIndex: 21
      m_TileMatrixIndex: 0
      m_TileColorIndex: 0
      m_ObjectToInstantiate: {fileID: 0}
      m_TileFlags: 1
      m_ColliderType: 1
  - first: {x: 8, y: 2, z: 0}
    second:
      m_TileIndex: 10
      m_TileSpriteIndex: 46
      m_TileMatrixIndex: 0
      m_TileColorIndex: 0
      m_ObjectToInstantiate: {fileID: 0}
      m_TileFlags: 1
      m_ColliderType: 1
  - first: {x: 9, y: 2, z: 0}
    second:
      m_TileIndex: 11
      m_TileSpriteIndex: 74
      m_TileMatrixIndex: 0
      m_TileColorIndex: 0
      m_ObjectToInstantiate: {fileID: 0}
      m_TileFlags: 1
      m_ColliderType: 1
  - first: {x: 10, y: 2, z: 0}
    second:
      m_TileIndex: 12
      m_TileSpriteIndex: 12
      m_TileMatrixIndex: 0
      m_TileColorIndex: 0
      m_ObjectToInstantiate: {fileID: 0}
      m_TileFlags: 1
      m_ColliderType: 1
  - first: {x: 11, y: 2, z: 0}
    second:
      m_TileIndex: 13
      m_TileSpriteIndex: 13
      m_TileMatrixIndex: 0
      m_TileColorIndex: 0
      m_ObjectToInstantiate: {fileID: 0}
      m_TileFlags: 1
      m_ColliderType: 1
  m_AnimatedTiles: {}
  m_TileAssetArray:
  - m_RefCount: 1
    m_Data: {fileID: 11400000, guid: ff1f471bca4314096afac81238ccc96f, type: 2}
  - m_RefCount: 1
    m_Data: {fileID: 11400000, guid: 0262fffbf1e884329bc52f23ee3dad19, type: 2}
  - m_RefCount: 1
    m_Data: {fileID: 11400000, guid: 83769cfee12e94f5d94f42e7106787ce, type: 2}
  - m_RefCount: 1
    m_Data: {fileID: 11400000, guid: d651e241b94b74d61828327230f52263, type: 2}
  - m_RefCount: 1
    m_Data: {fileID: 11400000, guid: 2578528e8dcb34b88b5fe36c62ef64ce, type: 2}
  - m_RefCount: 1
    m_Data: {fileID: 11400000, guid: 296d483a95475420ba01709b46490718, type: 2}
  - m_RefCount: 1
    m_Data: {fileID: 11400000, guid: 426aa60e7f46b4bb0a0dc0bdbf5b7bf8, type: 2}
  - m_RefCount: 1
    m_Data: {fileID: 11400000, guid: dd90f0a5bf9704dcabefc8c6c9316f8f, type: 2}
  - m_RefCount: 1
    m_Data: {fileID: 11400000, guid: cccf5d53b6da74e1cbde0061dff2dada, type: 2}
  - m_RefCount: 1
    m_Data: {fileID: 11400000, guid: cae6478dabd2e461193e08218e3d36f7, type: 2}
  - m_RefCount: 1
    m_Data: {fileID: 11400000, guid: 3a85791a2699d45879124fd11c1527ed, type: 2}
  - m_RefCount: 1
    m_Data: {fileID: 11400000, guid: bbbe19fea9a73481d9843db4b3b65ccb, type: 2}
  - m_RefCount: 1
    m_Data: {fileID: 11400000, guid: 5e0d73b7007c344a389ee2684fbe6373, type: 2}
  - m_RefCount: 1
    m_Data: {fileID: 11400000, guid: 20094f10e095847489fac7e4f4263116, type: 2}
  - m_RefCount: 1
    m_Data: {fileID: 11400000, guid: eebdc89b20042467c93c84c14a1ad2eb, type: 2}
  - m_RefCount: 1
    m_Data: {fileID: 11400000, guid: 6a5c46864fdc947a08aa20bb6f332c96, type: 2}
  - m_RefCount: 1
    m_Data: {fileID: 11400000, guid: 7922e05636c344c63820a114d2596542, type: 2}
  - m_RefCount: 1
    m_Data: {fileID: 11400000, guid: 5d63c2d3b52254f609da386df99c612a, type: 2}
  - m_RefCount: 1
    m_Data: {fileID: 11400000, guid: a9596915d3b2c49038eefd83a4f16683, type: 2}
  - m_RefCount: 1
    m_Data: {fileID: 11400000, guid: a0836fe326d0f4bd5a4858d618fc57e0, type: 2}
  - m_RefCount: 1
    m_Data: {fileID: 11400000, guid: 6d85c1fcfa25247dc964b6a7464047ba, type: 2}
  - m_RefCount: 1
    m_Data: {fileID: 11400000, guid: 1285a251606b14e1e8eec4ba95630703, type: 2}
  - m_RefCount: 1
    m_Data: {fileID: 11400000, guid: 363b4c988d25f42858c4c67d2914d691, type: 2}
  - m_RefCount: 1
    m_Data: {fileID: 11400000, guid: 8fb3bee32439e41ea9e6a44e3fa0a05c, type: 2}
  - m_RefCount: 1
    m_Data: {fileID: 11400000, guid: cf8904553f281466aa9df5831bfcd89c, type: 2}
  - m_RefCount: 1
    m_Data: {fileID: 11400000, guid: fb31c6c0560db4110b6df6260be70f8d, type: 2}
  - m_RefCount: 1
    m_Data: {fileID: 11400000, guid: b1320c803c83646d0917f63c730a0673, type: 2}
  - m_RefCount: 1
    m_Data: {fileID: 11400000, guid: 49d50ec6ca1bb4da2b2aa17e7a39e6ea, type: 2}
  - m_RefCount: 1
    m_Data: {fileID: 11400000, guid: 4b739dc4cc4cd4aedb89da73e854f1b7, type: 2}
  - m_RefCount: 1
    m_Data: {fileID: 11400000, guid: 377ab2b0198f34024951d8524c189e0c, type: 2}
  - m_RefCount: 1
    m_Data: {fileID: 11400000, guid: 63879f60e89244b4b904d5d202be35bd, type: 2}
  - m_RefCount: 1
    m_Data: {fileID: 11400000, guid: 66c86e17e75a14af5a38e6de33e4e291, type: 2}
  - m_RefCount: 1
    m_Data: {fileID: 11400000, guid: 23684c9082d184d77895eae2a8c6a180, type: 2}
  - m_RefCount: 1
    m_Data: {fileID: 11400000, guid: caeb9f6b43de342a381d544b0996152b, type: 2}
  - m_RefCount: 1
    m_Data: {fileID: 11400000, guid: 3258975cc709f49ab92697c80670a6a7, type: 2}
  - m_RefCount: 1
    m_Data: {fileID: 11400000, guid: a4e57600a11e345e4ab201876bc557f8, type: 2}
  - m_RefCount: 1
    m_Data: {fileID: 11400000, guid: 948f48a58f23142719e460d6681b3cad, type: 2}
  - m_RefCount: 1
    m_Data: {fileID: 11400000, guid: c480553b0506c43769867ab29b50fb61, type: 2}
  - m_RefCount: 1
    m_Data: {fileID: 11400000, guid: 52897c143bd3c4829a2da8f2bf8fc189, type: 2}
  - m_RefCount: 1
    m_Data: {fileID: 11400000, guid: 08012ddbdf20d4ecb9e619ad2b77a2ff, type: 2}
  - m_RefCount: 1
    m_Data: {fileID: 11400000, guid: a1c148fe92dc6461bb12fe45a75bdeec, type: 2}
  - m_RefCount: 1
    m_Data: {fileID: 11400000, guid: 9c516c9b9e00a4b38af8f74e334b7e95, type: 2}
  - m_RefCount: 1
    m_Data: {fileID: 11400000, guid: 36b2ecdd92ed44a7eb9628eae40fdf8f, type: 2}
  - m_RefCount: 1
    m_Data: {fileID: 11400000, guid: 3d654e1e8ade14db881990556f77943b, type: 2}
  - m_RefCount: 1
    m_Data: {fileID: 11400000, guid: c4b79d30c44b74466ae44cad95c755ad, type: 2}
  - m_RefCount: 1
    m_Data: {fileID: 11400000, guid: b446f8c3e89d14d09abd64c029a41a06, type: 2}
  - m_RefCount: 1
    m_Data: {fileID: 11400000, guid: f2af90fc94ec046f5afcc54e0d2a8cfa, type: 2}
  - m_RefCount: 1
    m_Data: {fileID: 11400000, guid: cab3911ec4baf4cfcb63d8914d3bf550, type: 2}
  - m_RefCount: 1
    m_Data: {fileID: 11400000, guid: 2f5a4662f26664ba8b1503d4b31f87db, type: 2}
  - m_RefCount: 1
    m_Data: {fileID: 11400000, guid: 6aac3b9e5474c4085a7f024301b67cfe, type: 2}
  - m_RefCount: 1
    m_Data: {fileID: 11400000, guid: 7643feae8005347bc8a5a48991ede4b1, type: 2}
  - m_RefCount: 1
    m_Data: {fileID: 11400000, guid: 2bbcdca451342418c8299093764aa09e, type: 2}
  - m_RefCount: 1
    m_Data: {fileID: 11400000, guid: 072fc7946f0944751b4de338956a218a, type: 2}
  - m_RefCount: 1
    m_Data: {fileID: 11400000, guid: 0096a89e064ec4e7e8647b16a9ac391f, type: 2}
  - m_RefCount: 1
    m_Data: {fileID: 11400000, guid: fdf804106951f41f6b40deaf8af87820, type: 2}
  - m_RefCount: 1
    m_Data: {fileID: 11400000, guid: c0daeac86078342c5ac7996fced633b7, type: 2}
  - m_RefCount: 1
    m_Data: {fileID: 11400000, guid: e40e4d2fa59304c919829ed4405e4592, type: 2}
  - m_RefCount: 1
    m_Data: {fileID: 11400000, guid: 74bcdb6b85eb34a25b4ebdb6b2c06aef, type: 2}
  - m_RefCount: 1
    m_Data: {fileID: 11400000, guid: cef3953ff6beb47d0861ae807bab962f, type: 2}
  - m_RefCount: 1
    m_Data: {fileID: 11400000, guid: da8294b734541438e8da4bf3c4575b8c, type: 2}
  - m_RefCount: 1
    m_Data: {fileID: 11400000, guid: c516fd55e2f41412eb7d165d40c31fc4, type: 2}
  - m_RefCount: 1
    m_Data: {fileID: 11400000, guid: df90cbf88b67942569bdc872ddc58ac1, type: 2}
  - m_RefCount: 1
    m_Data: {fileID: 11400000, guid: 18f2f9daab5b0447d9880854c5734d15, type: 2}
  - m_RefCount: 1
    m_Data: {fileID: 11400000, guid: ebd4571449743430cab24f91ce1c231b, type: 2}
  - m_RefCount: 1
    m_Data: {fileID: 11400000, guid: 9052018598cbd480dba24bac2d0d58d5, type: 2}
  - m_RefCount: 1
    m_Data: {fileID: 11400000, guid: 48d2ca556ebca48c4abf0ac82def45a4, type: 2}
  - m_RefCount: 1
    m_Data: {fileID: 11400000, guid: 3d5b6f03736454e48945ca274fb5398d, type: 2}
  - m_RefCount: 1
    m_Data: {fileID: 11400000, guid: 1f248de2efb35446385dc50217887aec, type: 2}
  - m_RefCount: 1
    m_Data: {fileID: 11400000, guid: 8270b05d10a534c0d8fcc5eb757d007b, type: 2}
  - m_RefCount: 1
    m_Data: {fileID: 11400000, guid: 805dd96ea599c4fc3a793cb2d2dd7712, type: 2}
  - m_RefCount: 1
    m_Data: {fileID: 11400000, guid: c462b47a73ac84408a4f6363c830ed63, type: 2}
  - m_RefCount: 1
    m_Data: {fileID: 11400000, guid: e4e1db29811e3411abc0195f8e1a6aa0, type: 2}
  - m_RefCount: 1
    m_Data: {fileID: 11400000, guid: a9c8b2c33258f4a5ab532ab9f50e4b55, type: 2}
  - m_RefCount: 1
    m_Data: {fileID: 11400000, guid: e2dad8e6b37a84bd0bb1663b210d4996, type: 2}
  - m_RefCount: 1
    m_Data: {fileID: 11400000, guid: ec6746233874146fdb255fa2bb2f5ffb, type: 2}
  - m_RefCount: 1
    m_Data: {fileID: 11400000, guid: d5f2a40dabd8843fb89214a53a2a5f6f, type: 2}
  - m_RefCount: 1
    m_Data: {fileID: 11400000, guid: d6a46eabfd6c74e7a85aeb1d1c9b8544, type: 2}
  - m_RefCount: 1
    m_Data: {fileID: 11400000, guid: 5ec474bd1469e47128b6e30ecd9fa62a, type: 2}
  - m_RefCount: 1
    m_Data: {fileID: 11400000, guid: 3cbe93fe5307e41d3b9d7152ab8a222e, type: 2}
  - m_RefCount: 1
    m_Data: {fileID: 11400000, guid: 20521ed9210534a24a0991725b62e3f3, type: 2}
  - m_RefCount: 1
    m_Data: {fileID: 11400000, guid: 6e81b2a2a27da42c3b0652a60a3b5649, type: 2}
  - m_RefCount: 1
    m_Data: {fileID: 11400000, guid: 91f16052168fc4a24a8a3115e091b38e, type: 2}
  - m_RefCount: 1
    m_Data: {fileID: 11400000, guid: 74e2f98ea21204ed9b322045c0b05bad, type: 2}
  - m_RefCount: 1
    m_Data: {fileID: 11400000, guid: 5aa2527b7e9bd4b7da279ae4a4ab36a3, type: 2}
  - m_RefCount: 1
    m_Data: {fileID: 11400000, guid: 8c202ac293295449fbbeb222eb84ae99, type: 2}
  - m_RefCount: 0
    m_Data: {fileID: 0}
  - m_RefCount: 0
    m_Data: {fileID: 0}
  - m_RefCount: 0
    m_Data: {fileID: 0}
  - m_RefCount: 0
    m_Data: {fileID: 0}
  - m_RefCount: 1
    m_Data: {fileID: 11400000, guid: ceb35c9eb6586439ca2c80215dacde16, type: 2}
  - m_RefCount: 1
    m_Data: {fileID: 11400000, guid: 024add9e8eec549838f5947981fa30d3, type: 2}
  - m_RefCount: 1
    m_Data: {fileID: 11400000, guid: 246056dc54cab4d1ca88f2fd05cfdab7, type: 2}
  - m_RefCount: 1
    m_Data: {fileID: 11400000, guid: d82d97176ac6042a5b342c85cc10be77, type: 2}
  - m_RefCount: 1
    m_Data: {fileID: 11400000, guid: 0be70ab91622e487c838d9659b756752, type: 2}
  - m_RefCount: 1
    m_Data: {fileID: 11400000, guid: 73f69863b3b25420183eedc4c25d1200, type: 2}
  - m_RefCount: 1
    m_Data: {fileID: 11400000, guid: 7a8902ba3c730497a9d60c8afb54b102, type: 2}
  - m_RefCount: 1
    m_Data: {fileID: 11400000, guid: cc250c30a2e5c409f9283d66ecb15239, type: 2}
  - m_RefCount: 1
    m_Data: {fileID: 11400000, guid: 278a98be841554068be7935160539833, type: 2}
  - m_RefCount: 1
    m_Data: {fileID: 11400000, guid: 5484041394c5943b3b8b255f6941ca75, type: 2}
  - m_RefCount: 1
    m_Data: {fileID: 11400000, guid: c9a255a4b3f264b909f4fbf7d124bdd0, type: 2}
  - m_RefCount: 1
    m_Data: {fileID: 11400000, guid: e455541ee6b09441c8d05c1c7552a910, type: 2}
  - m_RefCount: 1
    m_Data: {fileID: 11400000, guid: 507b3f12d436f4e71983a18e25d8e249, type: 2}
  - m_RefCount: 1
    m_Data: {fileID: 11400000, guid: d15379778bcd545a9ad375e785b896ad, type: 2}
  - m_RefCount: 1
    m_Data: {fileID: 11400000, guid: 28aaf5d59eeda43c99625f29102edb66, type: 2}
  - m_RefCount: 1
    m_Data: {fileID: 11400000, guid: bc52a4ee25eaf4c6aa931eca47a2a39a, type: 2}
  - m_RefCount: 1
    m_Data: {fileID: 11400000, guid: a0f16ea43a33a4951a04003a47fe10a3, type: 2}
  - m_RefCount: 1
    m_Data: {fileID: 11400000, guid: bfbaa9bb342dc4057b5b411d00fea861, type: 2}
  - m_RefCount: 1
    m_Data: {fileID: 11400000, guid: 18292c855661044eea9d2812597d0113, type: 2}
  - m_RefCount: 1
    m_Data: {fileID: 11400000, guid: 438208e1c0f4d4967ac5a8bd748635b5, type: 2}
  - m_RefCount: 1
    m_Data: {fileID: 11400000, guid: b031eea5726f7475ab56fc68e7e1c346, type: 2}
  - m_RefCount: 1
    m_Data: {fileID: 11400000, guid: d107b633fd21a41b08ae465afce78854, type: 2}
  - m_RefCount: 1
    m_Data: {fileID: 11400000, guid: e93529e78969e47829f1da08faaf17c9, type: 2}
  - m_RefCount: 1
    m_Data: {fileID: 11400000, guid: 5f51ffdc61712458e9f22c8b57f059d3, type: 2}
  - m_RefCount: 1
    m_Data: {fileID: 11400000, guid: 5606072fd74ba45569f67c5e063294e1, type: 2}
  - m_RefCount: 1
    m_Data: {fileID: 11400000, guid: cba7dfc27cf24465a946e03bb280f22e, type: 2}
  - m_RefCount: 1
    m_Data: {fileID: 11400000, guid: 3d0222dee2a2c4ba8918e24c376e20a8, type: 2}
  - m_RefCount: 1
    m_Data: {fileID: 11400000, guid: ec924676de60c4036b6ca4aadefecb4e, type: 2}
  - m_RefCount: 1
    m_Data: {fileID: 11400000, guid: c10c9d7a0221d498bb800e4ecde56a82, type: 2}
  - m_RefCount: 1
    m_Data: {fileID: 11400000, guid: cf2e4cf42330948d2803dc9dc1bc7a2c, type: 2}
  - m_RefCount: 1
    m_Data: {fileID: 11400000, guid: 376f2b3c8f7b7408ba710ee7222bbecb, type: 2}
  - m_RefCount: 1
    m_Data: {fileID: 11400000, guid: 25ef3f5fae7c84113b0622dd7fb6eb93, type: 2}
  - m_RefCount: 1
    m_Data: {fileID: 11400000, guid: 655754038e41d4e8993b89eaa1f3836b, type: 2}
  - m_RefCount: 1
    m_Data: {fileID: 11400000, guid: e4527cd5d563e4a7b968a65abbbf30e9, type: 2}
  - m_RefCount: 1
    m_Data: {fileID: 11400000, guid: 675297d75a70c48039433b7210aafe78, type: 2}
  - m_RefCount: 1
    m_Data: {fileID: 11400000, guid: 9c4c481a3ce62467da6fdf46c39ffc7f, type: 2}
  - m_RefCount: 1
    m_Data: {fileID: 11400000, guid: ae20de6a45cf14052bd1a9c56a4c7457, type: 2}
  - m_RefCount: 1
    m_Data: {fileID: 11400000, guid: cc9c83bdb5520453ea5b0cfc2a66caa2, type: 2}
  - m_RefCount: 1
    m_Data: {fileID: 11400000, guid: 2688a7a4005e94de4a52ba291e5a7f61, type: 2}
  - m_RefCount: 1
    m_Data: {fileID: 11400000, guid: 6a6c885ebace945e8ac3abf902f71777, type: 2}
  - m_RefCount: 1
    m_Data: {fileID: 11400000, guid: f6ba1d7fb278c4e4ca0cfa1529bbe092, type: 2}
  - m_RefCount: 1
    m_Data: {fileID: 11400000, guid: 42fa5f810d58b4d2fba322eef60650f9, type: 2}
  - m_RefCount: 1
    m_Data: {fileID: 11400000, guid: c4fffea44a2024c8e8690747ac94d32f, type: 2}
  - m_RefCount: 1
    m_Data: {fileID: 11400000, guid: e10788634e1a644b28505a9098910620, type: 2}
  - m_RefCount: 1
    m_Data: {fileID: 11400000, guid: cc0c1ea4b931f4a89929bc36b117e381, type: 2}
  - m_RefCount: 1
    m_Data: {fileID: 11400000, guid: 899ad9a3dbfaa4168985e027eb5e421e, type: 2}
  - m_RefCount: 1
    m_Data: {fileID: 11400000, guid: 23bd0a8e732d14f799a53aa84de726d1, type: 2}
  - m_RefCount: 1
    m_Data: {fileID: 11400000, guid: 8cb06f3011a994e90bc2ac214fb32da1, type: 2}
  - m_RefCount: 1
    m_Data: {fileID: 11400000, guid: 29960938f729f4766b69a4875b71f0b0, type: 2}
  - m_RefCount: 1
    m_Data: {fileID: 11400000, guid: 535d99e01411445f18b10269e7570d20, type: 2}
  - m_RefCount: 1
    m_Data: {fileID: 11400000, guid: b566c97f59c7c4b1aa7e4b472a41ee73, type: 2}
  - m_RefCount: 1
    m_Data: {fileID: 11400000, guid: 35f50aef5591744128c940fd3b7a452b, type: 2}
  - m_RefCount: 1
    m_Data: {fileID: 11400000, guid: f56ab062e039b4702a7bb5152514eafc, type: 2}
  - m_RefCount: 1
    m_Data: {fileID: 11400000, guid: 4219e4f3c1cdd4dab8d75b64976636d7, type: 2}
  - m_RefCount: 1
    m_Data: {fileID: 11400000, guid: 559c05b9b42d44d07bbaa788e080aef7, type: 2}
  - m_RefCount: 1
    m_Data: {fileID: 11400000, guid: 8474b18c9c63f4bc7ad1639ed28059e8, type: 2}
  - m_RefCount: 1
    m_Data: {fileID: 11400000, guid: 4e4d7ff6beda84461ac149e9c9e73515, type: 2}
  - m_RefCount: 1
    m_Data: {fileID: 11400000, guid: 70880aed8386d41cd9e431fc635168e3, type: 2}
  - m_RefCount: 1
    m_Data: {fileID: 11400000, guid: 7f7704589ba924c58b54e2b3d105aaa4, type: 2}
  - m_RefCount: 1
    m_Data: {fileID: 11400000, guid: 7b673e32235b74d0097f4bc329031237, type: 2}
  - m_RefCount: 1
    m_Data: {fileID: 11400000, guid: d91521362d0474d3487f2ac207c7643f, type: 2}
  - m_RefCount: 1
    m_Data: {fileID: 11400000, guid: 45134131a10c542d9afa38ae9439b2cd, type: 2}
  - m_RefCount: 1
    m_Data: {fileID: 11400000, guid: 162c566c4ab9140748613be258917ec0, type: 2}
  - m_RefCount: 1
    m_Data: {fileID: 11400000, guid: 47da2294452504cbfbe340f25449c4e1, type: 2}
  - m_RefCount: 1
    m_Data: {fileID: 11400000, guid: 90ca9b09fa9b14c29a3f21592a7eacdb, type: 2}
  - m_RefCount: 1
    m_Data: {fileID: 11400000, guid: 70be1d7f3f5294cfda96be29a024d839, type: 2}
  - m_RefCount: 1
    m_Data: {fileID: 11400000, guid: 37846a22dd217492aac8d71550e2edcf, type: 2}
  - m_RefCount: 1
    m_Data: {fileID: 11400000, guid: 311008c9dc9bf4ab69cda03a6fdbb1b8, type: 2}
  - m_RefCount: 1
    m_Data: {fileID: 11400000, guid: e217f3c975e61452eb8f32bcd06bbab8, type: 2}
  - m_RefCount: 1
    m_Data: {fileID: 11400000, guid: 1e340f29c5bcf4219a12f97aad281b19, type: 2}
  - m_RefCount: 1
    m_Data: {fileID: 11400000, guid: 19bfe33d8f143486281044b2ac69529d, type: 2}
  - m_RefCount: 1
    m_Data: {fileID: 11400000, guid: 4b966e32f9a1a45239ce701ef641aca9, type: 2}
  - m_RefCount: 1
    m_Data: {fileID: 11400000, guid: 9a34456e9f4f34a2cb10020c89f9b542, type: 2}
  - m_RefCount: 1
    m_Data: {fileID: 11400000, guid: 59f7f684078ce4b8d8e30324d6992824, type: 2}
  - m_RefCount: 1
    m_Data: {fileID: 11400000, guid: 02b141c011526432897c6bc6ad765c05, type: 2}
  - m_RefCount: 1
    m_Data: {fileID: 11400000, guid: 9c59a55e86a444b30ad0bc8e3638cef1, type: 2}
  - m_RefCount: 1
    m_Data: {fileID: 11400000, guid: 9d569ecaad595473384eb563678b65d5, type: 2}
  - m_RefCount: 1
    m_Data: {fileID: 11400000, guid: a405c07ee021a4dfb9805a2e94e4c3a7, type: 2}
  - m_RefCount: 1
    m_Data: {fileID: 11400000, guid: 12b3b7d8f271d4e7ebe53485a27cc8e5, type: 2}
  - m_RefCount: 1
    m_Data: {fileID: 11400000, guid: 01d431685be824ad697b6757ca936dc5, type: 2}
  - m_RefCount: 1
    m_Data: {fileID: 11400000, guid: 88a4e040bc88046e9910f026763e45f1, type: 2}
  - m_RefCount: 1
    m_Data: {fileID: 11400000, guid: 1f95333e0e0d843ef8b5fd6df0db5dd2, type: 2}
  - m_RefCount: 1
    m_Data: {fileID: 11400000, guid: 63bf3066b888747a3a4dcfa06c09f0ef, type: 2}
  m_TileSpriteArray:
  - m_RefCount: 0
    m_Data: {fileID: 0}
  - m_RefCount: 0
    m_Data: {fileID: 0}
  - m_RefCount: 0
    m_Data: {fileID: 0}
  - m_RefCount: 0
    m_Data: {fileID: 0}
  - m_RefCount: 1
    m_Data: {fileID: 21300000, guid: d16638cb5403f4004b3867706ff55dc4, type: 3}
  - m_RefCount: 1
    m_Data: {fileID: 21300000, guid: e0c1d5943c9934cfa82b25b01da39a1f, type: 3}
  - m_RefCount: 1
    m_Data: {fileID: 21300000, guid: 1e8d66810feea46bdb0f86b9b489b42d, type: 3}
  - m_RefCount: 1
    m_Data: {fileID: 21300000, guid: 9f755b87510d34f119af3adf72049ed2, type: 3}
  - m_RefCount: 1
    m_Data: {fileID: 21300000, guid: 273df88ccda4f42d698c15980b69858a, type: 3}
  - m_RefCount: 1
    m_Data: {fileID: 21300000, guid: cafe4ce57ae43440daf31bae3ace34ee, type: 3}
  - m_RefCount: 1
    m_Data: {fileID: 21300000, guid: 9925314af8661441fbe8e7392f3c7e9b, type: 3}
  - m_RefCount: 1
    m_Data: {fileID: 21300000, guid: ccdefc0883ebb4ce3a3edb18bd58de90, type: 3}
  - m_RefCount: 1
    m_Data: {fileID: 21300000, guid: 8e535ce9e284b470b9b55f7d92d99759, type: 3}
  - m_RefCount: 1
    m_Data: {fileID: 21300000, guid: 447f1aebe2243494bbd0c1d73a147d75, type: 3}
  - m_RefCount: 1
    m_Data: {fileID: 21300000, guid: ad6d6d0482acb4802962192bee4f9179, type: 3}
  - m_RefCount: 1
    m_Data: {fileID: 21300000, guid: 574e7174faaa54516ac87b2141e0c361, type: 3}
  - m_RefCount: 1
    m_Data: {fileID: 21300000, guid: 110da7ec39bf444bdb04c8bb957bf1f2, type: 3}
  - m_RefCount: 1
    m_Data: {fileID: 21300000, guid: c8c2befd2daca41f5b74f9bb60a20c52, type: 3}
  - m_RefCount: 1
    m_Data: {fileID: 21300000, guid: 16c67dba20f4b4bb99de9cd8f7725dd3, type: 3}
  - m_RefCount: 1
    m_Data: {fileID: 21300000, guid: ef1bc480dc1304344822b8008c38a7d1, type: 3}
  - m_RefCount: 1
    m_Data: {fileID: 21300000, guid: ef83a1bd24a624b7f83a01829ea37b38, type: 3}
  - m_RefCount: 1
    m_Data: {fileID: 21300000, guid: 1c46480a749ac4c97bdab63204bf38f7, type: 3}
  - m_RefCount: 1
    m_Data: {fileID: 21300000, guid: 9712484dc39bc493299720824543953f, type: 3}
  - m_RefCount: 1
    m_Data: {fileID: 21300000, guid: 29ee7d5fca3c8415baa5ed8cd3b44c20, type: 3}
  - m_RefCount: 1
    m_Data: {fileID: 21300000, guid: ac88294292b1b4a9f9421aff8f7063fe, type: 3}
  - m_RefCount: 1
    m_Data: {fileID: 21300000, guid: 10a0e23d5f778442d95c44637929fc05, type: 3}
  - m_RefCount: 1
    m_Data: {fileID: 21300000, guid: 673286ed4396b474f9fffd12389c2dba, type: 3}
  - m_RefCount: 1
    m_Data: {fileID: 21300000, guid: d4a0de299b6a540ab99c524d0afc75fd, type: 3}
  - m_RefCount: 1
    m_Data: {fileID: 21300000, guid: 807b631b4a7da43a4962763b354b1a5d, type: 3}
  - m_RefCount: 1
    m_Data: {fileID: 21300000, guid: 6b4a3d886f11144b4b9636595b4eb024, type: 3}
  - m_RefCount: 1
    m_Data: {fileID: 21300000, guid: 99a5f0118e2d8409caeefe4e74ec4c3b, type: 3}
  - m_RefCount: 1
    m_Data: {fileID: 21300000, guid: 94888142d85794fe19ec72e632b37049, type: 3}
  - m_RefCount: 1
    m_Data: {fileID: 21300000, guid: cbc21e9df481b4e9d9ad0eae254b5a80, type: 3}
  - m_RefCount: 1
    m_Data: {fileID: 21300000, guid: 90d9c0b48d8bc4a20991eab88fc891a0, type: 3}
  - m_RefCount: 1
    m_Data: {fileID: 21300000, guid: 89286c361d13245f4a3e35f9d624666f, type: 3}
  - m_RefCount: 1
    m_Data: {fileID: 21300000, guid: 3790f7289498644d7b563165780e4426, type: 3}
  - m_RefCount: 1
    m_Data: {fileID: 21300000, guid: 95107a8e745be4016a71ab03bf1ea2ac, type: 3}
  - m_RefCount: 1
    m_Data: {fileID: 21300000, guid: 893306f88ae024285b5747fabf6ccc09, type: 3}
  - m_RefCount: 1
    m_Data: {fileID: 21300000, guid: 3cb7012f2f49641f58ced34ebbfb495a, type: 3}
  - m_RefCount: 1
    m_Data: {fileID: 21300000, guid: 49427e8eb9af142eb8713d33367de017, type: 3}
  - m_RefCount: 1
    m_Data: {fileID: 21300000, guid: e6f92bcbe50e74c62ae19598ff5088a1, type: 3}
  - m_RefCount: 1
    m_Data: {fileID: 21300000, guid: aa8b984a13d7b4320b0383e1a70d483e, type: 3}
  - m_RefCount: 1
    m_Data: {fileID: 21300000, guid: 2de1d6d05f4a14f16ac20760418082f2, type: 3}
  - m_RefCount: 1
    m_Data: {fileID: 21300000, guid: f7b26b4ca030f45f5b7950f699943a26, type: 3}
  - m_RefCount: 1
    m_Data: {fileID: 21300000, guid: a56c3ed87a3b64aac9fddedd093797ef, type: 3}
  - m_RefCount: 1
    m_Data: {fileID: 21300000, guid: 8ba0c3b49b9eb442fb0ac078b848f584, type: 3}
  - m_RefCount: 1
    m_Data: {fileID: 21300000, guid: f7f7a0ea639a64a579eebfa969263cb4, type: 3}
  - m_RefCount: 1
    m_Data: {fileID: 21300000, guid: af023633c016643a9ac9a4a6ad899441, type: 3}
  - m_RefCount: 1
    m_Data: {fileID: 21300000, guid: 2cd78a366bbd24509b6442e848ef282f, type: 3}
  - m_RefCount: 1
    m_Data: {fileID: 21300000, guid: f36663c5c29e742ebbf9f07db567de99, type: 3}
  - m_RefCount: 1
    m_Data: {fileID: 21300000, guid: 4a3980a735cea4ab1b62b2470683ed51, type: 3}
  - m_RefCount: 1
    m_Data: {fileID: 21300000, guid: 24e2039db9695483baa6620f6218c37a, type: 3}
  - m_RefCount: 1
    m_Data: {fileID: 21300000, guid: 69395ea80818347b9b224ffd82e13993, type: 3}
  - m_RefCount: 1
    m_Data: {fileID: 21300000, guid: 4d015f8d4f77149ed8a287b6041feab8, type: 3}
  - m_RefCount: 1
    m_Data: {fileID: 21300000, guid: 1f1e6ccf574804935a881439adac6fa7, type: 3}
  - m_RefCount: 1
    m_Data: {fileID: 21300000, guid: 602918a8d9f56459187d4b6e066c1040, type: 3}
  - m_RefCount: 1
    m_Data: {fileID: 21300000, guid: 97cc1e79a065d495ebf111df448cb04d, type: 3}
  - m_RefCount: 1
    m_Data: {fileID: 21300000, guid: 0c05e925a7cc74ceda8b7612a5dd09f4, type: 3}
  - m_RefCount: 1
    m_Data: {fileID: 21300000, guid: 7abf3a1852ab849bf938ddb4b0fe8f67, type: 3}
  - m_RefCount: 1
    m_Data: {fileID: 21300000, guid: db8394014b5784309bf4d12d0407c0ff, type: 3}
  - m_RefCount: 1
    m_Data: {fileID: 21300000, guid: 8282cbeb4d7ff459d980601cea6dfa35, type: 3}
  - m_RefCount: 1
    m_Data: {fileID: 21300000, guid: 19a24f545102d4851ace9323e7905aa1, type: 3}
  - m_RefCount: 1
    m_Data: {fileID: 21300000, guid: 73f4f284bb40d42de807863afc417594, type: 3}
  - m_RefCount: 1
    m_Data: {fileID: 21300000, guid: 0cb13f892c85b4b8a846112e2545a66a, type: 3}
  - m_RefCount: 1
    m_Data: {fileID: 21300000, guid: df5268ee6129d40a398d72e6d9162f18, type: 3}
  - m_RefCount: 1
    m_Data: {fileID: 21300000, guid: 5289b5c95096e4eab809621e450e0e08, type: 3}
  - m_RefCount: 1
    m_Data: {fileID: 21300000, guid: 50bc68b318ddb4a628babd072f8881df, type: 3}
  - m_RefCount: 1
    m_Data: {fileID: 21300000, guid: df91aca518859498a99edc762ea28804, type: 3}
  - m_RefCount: 1
    m_Data: {fileID: 21300000, guid: f7bed2bfae411473d88ff1c441562343, type: 3}
  - m_RefCount: 1
    m_Data: {fileID: 21300000, guid: f31c71fc479b8439bbbe8df08c3e78cf, type: 3}
  - m_RefCount: 1
    m_Data: {fileID: 21300000, guid: 03f04d2fbe0944763b34f819af9080c8, type: 3}
  - m_RefCount: 1
    m_Data: {fileID: 21300000, guid: ca9ec88b5dc4c442694f8c64552928f8, type: 3}
  - m_RefCount: 1
    m_Data: {fileID: 21300000, guid: b8027a26de8ea4066bfd8d17a51958d8, type: 3}
  - m_RefCount: 1
    m_Data: {fileID: 21300000, guid: 5f055bb0692784e48bc3be3e4120e503, type: 3}
  - m_RefCount: 1
    m_Data: {fileID: 21300000, guid: 59466905ce7f64cd1b560650bbeeea42, type: 3}
  - m_RefCount: 1
    m_Data: {fileID: 21300000, guid: ae33e16d9fb0647c586f3fd2cf433018, type: 3}
  - m_RefCount: 1
    m_Data: {fileID: 21300000, guid: b34de1fbe55474afd841d97a67869b76, type: 3}
  - m_RefCount: 1
    m_Data: {fileID: 21300000, guid: e9732dd90d4dc4fac9e3d337aff52b8e, type: 3}
  - m_RefCount: 1
    m_Data: {fileID: 21300000, guid: 7c1e54ef5ad654d84926b6cb674181e5, type: 3}
  - m_RefCount: 1
    m_Data: {fileID: 21300000, guid: 581be3c60d48e4aac8f67adf62094f88, type: 3}
  - m_RefCount: 1
    m_Data: {fileID: 21300000, guid: 42d4c9358f36f4521959ea2f1566ac9e, type: 3}
  - m_RefCount: 1
    m_Data: {fileID: 21300000, guid: 2a2fa0f22d7fb4ef58c848b21161cfe2, type: 3}
  - m_RefCount: 1
    m_Data: {fileID: 21300000, guid: c8113ce4f57eb4d5095274cfd2b79dcd, type: 3}
  - m_RefCount: 1
    m_Data: {fileID: 21300000, guid: b319f19e7445242959d14ff26c496432, type: 3}
  - m_RefCount: 1
    m_Data: {fileID: 21300000, guid: 68a2d9a02b0574176b057f9d4b5e1050, type: 3}
  - m_RefCount: 1
    m_Data: {fileID: 21300000, guid: 3948b79dd0de640ad84a702be7899ab2, type: 3}
  - m_RefCount: 1
    m_Data: {fileID: 21300000, guid: b88f76b5e00c94d9db270cb9b031ae84, type: 3}
  - m_RefCount: 1
    m_Data: {fileID: 21300000, guid: 15528760efd014193b0135a125d429a9, type: 3}
  - m_RefCount: 1
    m_Data: {fileID: 21300000, guid: 2fd9489afbb704cf480fb8fd5fd4d939, type: 3}
  - m_RefCount: 1
    m_Data: {fileID: 21300000, guid: 3c2d64ade53a94cbaa28ce4d35238458, type: 3}
  - m_RefCount: 1
    m_Data: {fileID: 21300000, guid: b193bd8b4d3cb40e787ac00b08f62aa5, type: 3}
  - m_RefCount: 1
    m_Data: {fileID: 21300000, guid: 8336184cd8bf04cb79e34c1c79074e93, type: 3}
  - m_RefCount: 1
    m_Data: {fileID: 21300000, guid: 5472547ab83b2410db7ee24b29cf0989, type: 3}
  - m_RefCount: 1
    m_Data: {fileID: 21300000, guid: a87931a190d634a4eb3c97fdd5ce3951, type: 3}
  - m_RefCount: 1
    m_Data: {fileID: 21300000, guid: 4bde4f54280cb4663a6685520b97aa0f, type: 3}
  - m_RefCount: 1
    m_Data: {fileID: 21300000, guid: efa162b93082545bfbc9640b0bfbc330, type: 3}
  - m_RefCount: 1
    m_Data: {fileID: 21300000, guid: 7f16893af1e514e869170ee4adb240f8, type: 3}
  - m_RefCount: 1
    m_Data: {fileID: 21300000, guid: e8bbfa293bc054870a5748286e31af4e, type: 3}
  - m_RefCount: 1
    m_Data: {fileID: 21300000, guid: 6ddc992a58aca4678b6cc74e7479eb53, type: 3}
  - m_RefCount: 1
    m_Data: {fileID: 21300000, guid: 00ee9fcb6eab1478a85d784595b61de1, type: 3}
  - m_RefCount: 1
    m_Data: {fileID: 21300000, guid: 3aa855f8475964df7aa538d02fdde2f4, type: 3}
  - m_RefCount: 1
    m_Data: {fileID: 21300000, guid: e2add19c2c90b4720ae398057c884cfa, type: 3}
  - m_RefCount: 1
    m_Data: {fileID: 21300000, guid: 7e906f2e1f348490da11013cac86491c, type: 3}
  - m_RefCount: 1
    m_Data: {fileID: 21300000, guid: 307e2b8d8a3544058afaf4b89507e8b9, type: 3}
  - m_RefCount: 1
    m_Data: {fileID: 21300000, guid: c3c13c42f32db4f29bf065a90cd1a509, type: 3}
  - m_RefCount: 1
    m_Data: {fileID: 21300000, guid: c84b836330c21462fa8cba30f73adb37, type: 3}
  - m_RefCount: 1
    m_Data: {fileID: 21300000, guid: 3f4de2afb7d51414ea00d4e622197b38, type: 3}
  - m_RefCount: 1
    m_Data: {fileID: 21300000, guid: 263767de337664642935ce4b80d5158b, type: 3}
  - m_RefCount: 1
    m_Data: {fileID: 21300000, guid: 93519cb09c95e49388403a1924771ba8, type: 3}
  - m_RefCount: 1
    m_Data: {fileID: 21300000, guid: fc15466cc39974c8bbe0f5b8ad460b49, type: 3}
  - m_RefCount: 1
    m_Data: {fileID: 21300000, guid: bc8291fbf290c4a33bd867b10f8b8e9d, type: 3}
  - m_RefCount: 1
    m_Data: {fileID: 21300000, guid: 5f5337c58eb814f988ea92e2bf18a335, type: 3}
  - m_RefCount: 1
    m_Data: {fileID: 21300000, guid: 79c45c4fe17824dc996050f97125199b, type: 3}
  - m_RefCount: 1
    m_Data: {fileID: 21300000, guid: 9ba015e1cc5ac483aae578adeea50642, type: 3}
  - m_RefCount: 1
    m_Data: {fileID: 21300000, guid: e75b3ba2658f541d8933ef20e653691c, type: 3}
  - m_RefCount: 1
    m_Data: {fileID: 21300000, guid: 4dff67fcbf56a4db0a15aa2bdf350065, type: 3}
  - m_RefCount: 1
    m_Data: {fileID: 21300000, guid: 9d84d4fbf613246a7bb4e12f9d5e09a5, type: 3}
  - m_RefCount: 1
    m_Data: {fileID: 21300000, guid: d028bc8d7351345b9951bcf938bad4c9, type: 3}
  - m_RefCount: 1
    m_Data: {fileID: 21300000, guid: 9b2c8b6a005e1452793ef55e4ac8193d, type: 3}
  - m_RefCount: 1
    m_Data: {fileID: 21300000, guid: 667a8b681d56d4562b430fbdfb1b7913, type: 3}
  - m_RefCount: 1
    m_Data: {fileID: 21300000, guid: 6676ffe86cfbd4f329fddff09b4a6afe, type: 3}
  - m_RefCount: 1
    m_Data: {fileID: 21300000, guid: 7fae38c732ed84dd39bbada937c27ea2, type: 3}
  - m_RefCount: 1
    m_Data: {fileID: 21300000, guid: a77f3caadffef4f0a8cb7ff102f930a2, type: 3}
  - m_RefCount: 1
    m_Data: {fileID: 21300000, guid: eb5bce75e25f944ea8f58faf29e1c7de, type: 3}
  - m_RefCount: 1
    m_Data: {fileID: 21300000, guid: e515d870256ed495cab08c09c06121f2, type: 3}
  - m_RefCount: 1
    m_Data: {fileID: 21300000, guid: eea1f2a74c3ee4929880d8f1e84e9d96, type: 3}
  - m_RefCount: 1
    m_Data: {fileID: 21300000, guid: 8da92e76cfbe54be89b3ed46393185c2, type: 3}
  - m_RefCount: 1
    m_Data: {fileID: 21300000, guid: 71412851d1d494bfb8dc9982a57b87e2, type: 3}
  - m_RefCount: 1
    m_Data: {fileID: 21300000, guid: f4d5894132b714e02b57d47160638f8b, type: 3}
  - m_RefCount: 1
    m_Data: {fileID: 21300000, guid: 2577e04abb1504f72bf39038f609885d, type: 3}
  - m_RefCount: 1
    m_Data: {fileID: 21300000, guid: 10e935a961d3040348c8777859212885, type: 3}
  - m_RefCount: 1
    m_Data: {fileID: 21300000, guid: 4bcc237b8c4c54a54be9748909c0f460, type: 3}
  - m_RefCount: 1
    m_Data: {fileID: 21300000, guid: c0dd5dd8c1b6142f894344c131742096, type: 3}
  - m_RefCount: 1
    m_Data: {fileID: 21300000, guid: 2a6ed92fc437a413480f15b48c33cd63, type: 3}
  - m_RefCount: 1
    m_Data: {fileID: 21300000, guid: 536f930af5df34b0dbe1079ed1e149d9, type: 3}
  - m_RefCount: 1
    m_Data: {fileID: 21300000, guid: 5543a982462754d9980122bc842a9434, type: 3}
  - m_RefCount: 1
    m_Data: {fileID: 21300000, guid: ed1bc73622b6946e3b758ff6089e407f, type: 3}
  - m_RefCount: 1
    m_Data: {fileID: 21300000, guid: 6eb9dac51751541f1919c06cf0beb589, type: 3}
  - m_RefCount: 1
    m_Data: {fileID: 21300000, guid: f1a0bb5c614c94f76ba41747f041c569, type: 3}
  - m_RefCount: 1
    m_Data: {fileID: 21300000, guid: 43f46472b20c54eedbf44e646754dc13, type: 3}
  - m_RefCount: 1
    m_Data: {fileID: 21300000, guid: 76fe84890769c4fc5af44ded028e33f1, type: 3}
  - m_RefCount: 1
    m_Data: {fileID: 21300000, guid: ccba21999ca394e3ea8437b109426692, type: 3}
  - m_RefCount: 1
    m_Data: {fileID: 21300000, guid: f1d88912a0355489090fff1eac0d3179, type: 3}
  - m_RefCount: 1
    m_Data: {fileID: 21300000, guid: 6606722b83b86474cb4ff441a998136d, type: 3}
  - m_RefCount: 1
    m_Data: {fileID: 21300000, guid: 917362c3adc354add9186e66cd7169b3, type: 3}
  - m_RefCount: 1
    m_Data: {fileID: 21300000, guid: 0e081ee166b0f49dfb7e8c34394191cd, type: 3}
  - m_RefCount: 1
    m_Data: {fileID: 21300000, guid: a3a7b3fdc5f7749f5803bd975aed47b2, type: 3}
  - m_RefCount: 1
    m_Data: {fileID: 21300000, guid: fae5e4fd8b95e45408167645dab7a635, type: 3}
  - m_RefCount: 1
    m_Data: {fileID: 21300000, guid: da7be3712a28d48b6bedf974d8776bae, type: 3}
  - m_RefCount: 1
    m_Data: {fileID: 21300000, guid: a5dc88bcf59684e21b40b30707e11533, type: 3}
  - m_RefCount: 1
    m_Data: {fileID: 21300000, guid: 90f5fe39176d34e5493d4a8e06706fb2, type: 3}
  - m_RefCount: 1
    m_Data: {fileID: 21300000, guid: c482a6f5182b34e2182bb1e36138686b, type: 3}
  - m_RefCount: 1
    m_Data: {fileID: 21300000, guid: 45508607c6070449cb51e55cb73a3b13, type: 3}
  - m_RefCount: 1
    m_Data: {fileID: 21300000, guid: 81c8872a16a794667b24149b487588ec, type: 3}
  - m_RefCount: 1
    m_Data: {fileID: 21300000, guid: ec9c604a8e01c46afbf0831255a9e783, type: 3}
  - m_RefCount: 1
    m_Data: {fileID: 21300000, guid: 397d84e70eac6497f80bfb0fc6977911, type: 3}
  - m_RefCount: 1
    m_Data: {fileID: 21300000, guid: 9c9a676113ef74c418339f36990e7e5d, type: 3}
  - m_RefCount: 1
    m_Data: {fileID: 21300000, guid: 42edfc129b71a4a398920229687d2687, type: 3}
  - m_RefCount: 1
    m_Data: {fileID: 21300000, guid: 0bc4f7cfc75de467f9c52424732176a1, type: 3}
  - m_RefCount: 1
    m_Data: {fileID: 21300000, guid: b6fc2e73813e540e18c0203f05a41768, type: 3}
  - m_RefCount: 1
    m_Data: {fileID: 21300000, guid: 1f00e2607226842859b4a24b5daff86e, type: 3}
  - m_RefCount: 1
    m_Data: {fileID: 21300000, guid: 7d916ea816f984bfd9cb8cc31d01aba1, type: 3}
  - m_RefCount: 1
    m_Data: {fileID: 21300000, guid: 4e6ef9e2e90e74c0fa2a7968f9525fe1, type: 3}
  - m_RefCount: 1
    m_Data: {fileID: 21300000, guid: f50e0230d5cb7456090ab92a51255d3d, type: 3}
  - m_RefCount: 1
    m_Data: {fileID: 21300000, guid: c4944c54d97e6462fb6eff9a577aa0b3, type: 3}
  - m_RefCount: 1
    m_Data: {fileID: 21300000, guid: 5785c7828d83b4639a360b2beb77a517, type: 3}
  - m_RefCount: 1
    m_Data: {fileID: 21300000, guid: b8b5245730cfa4ff4815e8e1eee7476e, type: 3}
  - m_RefCount: 1
    m_Data: {fileID: 21300000, guid: 56b0b5707a2f34bbe92609ed891e25f7, type: 3}
  - m_RefCount: 1
    m_Data: {fileID: 21300000, guid: b0e41ece3027844f5ba46fe94318e32c, type: 3}
  - m_RefCount: 1
    m_Data: {fileID: 21300000, guid: ee98be095d7b94be6b16bd449cd468e4, type: 3}
  - m_RefCount: 1
    m_Data: {fileID: 21300000, guid: 17c922bc3ea4d4c47b8c1d936696aee7, type: 3}
  - m_RefCount: 1
    m_Data: {fileID: 21300000, guid: 08ba5d9e744da4fa0a6a6173113e477a, type: 3}
  m_TileMatrixArray:
  - m_RefCount: 168
    m_Data:
      e00: 1
      e01: 0
      e02: 0
      e03: 0
      e10: 0
      e11: 1
      e12: 0
      e13: 0
      e20: 0
      e21: 0
      e22: 1
      e23: 0
      e30: 0
      e31: 0
      e32: 0
      e33: 1
  m_TileColorArray:
  - m_RefCount: 168
    m_Data: {r: 1, g: 1, b: 1, a: 1}
  m_AnimationFrameRate: 1
  m_Color: {r: 1, g: 1, b: 1, a: 1}
  m_Origin: {x: -2, y: -10, z: 0}
  m_Size: {x: 14, y: 13, z: 1}
  m_TileAnchor: {x: 0.5, y: 0.5, z: 0}
  m_TileOrientation: 0
  m_TileOrientationMatrix:
    e00: 1
    e01: 0
    e02: 0
    e03: 0
    e10: 0
    e11: 1
    e12: 0
    e13: 0
    e20: 0
    e21: 0
    e22: 1
    e23: 0
    e30: 0
    e31: 0
    e32: 0
    e33: 1
  m_TileRefreshArray:
  - serializedVersion: 1
    m_DirtyIndex: 0
  - serializedVersion: 1
    m_DirtyIndex: 0
  - serializedVersion: 1
    m_DirtyIndex: 0
  - serializedVersion: 1
    m_DirtyIndex: 0
  - serializedVersion: 1
    m_DirtyIndex: 0
  - serializedVersion: 1
    m_DirtyIndex: 0
  - serializedVersion: 1
    m_DirtyIndex: 0
  - serializedVersion: 1
    m_DirtyIndex: 0
  - serializedVersion: 1
    m_DirtyIndex: 0
  - serializedVersion: 1
    m_DirtyIndex: 0
  - serializedVersion: 1
    m_DirtyIndex: 0
  - serializedVersion: 1
    m_DirtyIndex: 0
  - serializedVersion: 1
    m_DirtyIndex: 0
  - serializedVersion: 1
    m_DirtyIndex: 0
  - serializedVersion: 1
    m_DirtyIndex: 0
  - serializedVersion: 1
    m_DirtyIndex: 0
  - serializedVersion: 1
    m_DirtyIndex: 0
  - serializedVersion: 1
    m_DirtyIndex: 0
  - serializedVersion: 1
    m_DirtyIndex: 0
  - serializedVersion: 1
    m_DirtyIndex: 0
  - serializedVersion: 1
    m_DirtyIndex: 0
  - serializedVersion: 1
    m_DirtyIndex: 0
  - serializedVersion: 1
    m_DirtyIndex: 0
  - serializedVersion: 1
    m_DirtyIndex: 0
  - serializedVersion: 1
    m_DirtyIndex: 0
  - serializedVersion: 1
    m_DirtyIndex: 0
  - serializedVersion: 1
    m_DirtyIndex: 0
  - serializedVersion: 1
    m_DirtyIndex: 0
  - serializedVersion: 1
    m_DirtyIndex: 0
  - serializedVersion: 1
    m_DirtyIndex: 0
  - serializedVersion: 1
    m_DirtyIndex: 0
  - serializedVersion: 1
    m_DirtyIndex: 0
  - serializedVersion: 1
    m_DirtyIndex: 0
  - serializedVersion: 1
    m_DirtyIndex: 0
  - serializedVersion: 1
    m_DirtyIndex: 0
  - serializedVersion: 1
    m_DirtyIndex: 0
  - serializedVersion: 1
    m_DirtyIndex: 0
  - serializedVersion: 1
    m_DirtyIndex: 0
  - serializedVersion: 1
    m_DirtyIndex: 0
  - serializedVersion: 1
    m_DirtyIndex: 0
  - serializedVersion: 1
    m_DirtyIndex: 0
  - serializedVersion: 1
    m_DirtyIndex: 0
  - serializedVersion: 1
    m_DirtyIndex: 0
  - serializedVersion: 1
    m_DirtyIndex: 0
  - serializedVersion: 1
    m_DirtyIndex: 0
  - serializedVersion: 1
    m_DirtyIndex: 0
  - serializedVersion: 1
    m_DirtyIndex: 0
  - serializedVersion: 1
    m_DirtyIndex: 0
  - serializedVersion: 1
    m_DirtyIndex: 0
  - serializedVersion: 1
    m_DirtyIndex: 0
  - serializedVersion: 1
    m_DirtyIndex: 0
  - serializedVersion: 1
    m_DirtyIndex: 0
  - serializedVersion: 1
    m_DirtyIndex: 0
  - serializedVersion: 1
    m_DirtyIndex: 0
  - serializedVersion: 1
    m_DirtyIndex: 0
  - serializedVersion: 1
    m_DirtyIndex: 0
  - serializedVersion: 1
    m_DirtyIndex: 0
  - serializedVersion: 1
    m_DirtyIndex: 0
  - serializedVersion: 1
    m_DirtyIndex: 0
  - serializedVersion: 1
    m_DirtyIndex: 0
  - serializedVersion: 1
    m_DirtyIndex: 0
  - serializedVersion: 1
    m_DirtyIndex: 0
  - serializedVersion: 1
    m_DirtyIndex: 0
  - serializedVersion: 1
    m_DirtyIndex: 0
  - serializedVersion: 1
    m_DirtyIndex: 0
  - serializedVersion: 1
    m_DirtyIndex: 0
  - serializedVersion: 1
    m_DirtyIndex: 0
  - serializedVersion: 1
    m_DirtyIndex: 0
  - serializedVersion: 1
    m_DirtyIndex: 0
  - serializedVersion: 1
    m_DirtyIndex: 0
  - serializedVersion: 1
    m_DirtyIndex: 0
  - serializedVersion: 1
    m_DirtyIndex: 0
  - serializedVersion: 1
    m_DirtyIndex: 0
  - serializedVersion: 1
    m_DirtyIndex: 0
  - serializedVersion: 1
    m_DirtyIndex: 0
  - serializedVersion: 1
    m_DirtyIndex: 0
  - serializedVersion: 1
    m_DirtyIndex: 0
  - serializedVersion: 1
    m_DirtyIndex: 0
  - serializedVersion: 1
    m_DirtyIndex: 0
  - serializedVersion: 1
    m_DirtyIndex: 0
  - serializedVersion: 1
    m_DirtyIndex: 0
  - serializedVersion: 1
    m_DirtyIndex: 0
  - serializedVersion: 1
    m_DirtyIndex: 0
  - serializedVersion: 1
    m_DirtyIndex: 0
  - serializedVersion: 1
    m_DirtyIndex: 0
  - serializedVersion: 1
    m_DirtyIndex: 0
  - serializedVersion: 1
    m_DirtyIndex: 0
  - serializedVersion: 1
    m_DirtyIndex: 0
  - serializedVersion: 1
    m_DirtyIndex: 0
  - serializedVersion: 1
    m_DirtyIndex: 0
  - serializedVersion: 1
    m_DirtyIndex: 0
  - serializedVersion: 1
    m_DirtyIndex: 0
  - serializedVersion: 1
    m_DirtyIndex: 0
  - serializedVersion: 1
    m_DirtyIndex: 0
  - serializedVersion: 1
    m_DirtyIndex: 0
  - serializedVersion: 1
    m_DirtyIndex: 0
  - serializedVersion: 1
    m_DirtyIndex: 0
  - serializedVersion: 1
    m_DirtyIndex: 0
  - serializedVersion: 1
    m_DirtyIndex: 0
  - serializedVersion: 1
    m_DirtyIndex: 0
  - serializedVersion: 1
    m_DirtyIndex: 0
  - serializedVersion: 1
    m_DirtyIndex: 0
  - serializedVersion: 1
    m_DirtyIndex: 0
  - serializedVersion: 1
    m_DirtyIndex: 0
  - serializedVersion: 1
    m_DirtyIndex: 0
  - serializedVersion: 1
    m_DirtyIndex: 0
  - serializedVersion: 1
    m_DirtyIndex: 0
  - serializedVersion: 1
    m_DirtyIndex: 0
  - serializedVersion: 1
    m_DirtyIndex: 0
  - serializedVersion: 1
    m_DirtyIndex: 0
  - serializedVersion: 1
    m_DirtyIndex: 0
  - serializedVersion: 1
    m_DirtyIndex: 0
  - serializedVersion: 1
    m_DirtyIndex: 0
  - serializedVersion: 1
    m_DirtyIndex: 0
  - serializedVersion: 1
    m_DirtyIndex: 0
  - serializedVersion: 1
    m_DirtyIndex: 0
  - serializedVersion: 1
    m_DirtyIndex: 0
  - serializedVersion: 1
    m_DirtyIndex: 0
  - serializedVersion: 1
    m_DirtyIndex: 0
  - serializedVersion: 1
    m_DirtyIndex: 0
  - serializedVersion: 1
    m_DirtyIndex: 0
  - serializedVersion: 1
    m_DirtyIndex: 0
  - serializedVersion: 1
    m_DirtyIndex: 0
  - serializedVersion: 1
    m_DirtyIndex: 0
  - serializedVersion: 1
    m_DirtyIndex: 0
  - serializedVersion: 1
    m_DirtyIndex: 0
  - serializedVersion: 1
    m_DirtyIndex: 0
  - serializedVersion: 1
    m_DirtyIndex: 0
  - serializedVersion: 1
    m_DirtyIndex: 0
  - serializedVersion: 1
    m_DirtyIndex: 0
  - serializedVersion: 1
    m_DirtyIndex: 0
  - serializedVersion: 1
    m_DirtyIndex: 0
  - serializedVersion: 1
    m_DirtyIndex: 0
  - serializedVersion: 1
    m_DirtyIndex: 0
  - serializedVersion: 1
    m_DirtyIndex: 0
  - serializedVersion: 1
    m_DirtyIndex: 0
  - serializedVersion: 1
    m_DirtyIndex: 0
  - serializedVersion: 1
    m_DirtyIndex: 0
  - serializedVersion: 1
    m_DirtyIndex: 0
  - serializedVersion: 1
    m_DirtyIndex: 0
  - serializedVersion: 1
    m_DirtyIndex: 0
  - serializedVersion: 1
    m_DirtyIndex: 0
  - serializedVersion: 1
    m_DirtyIndex: 0
  - serializedVersion: 1
    m_DirtyIndex: 0
  - serializedVersion: 1
    m_DirtyIndex: 0
  - serializedVersion: 1
    m_DirtyIndex: 0
  - serializedVersion: 1
    m_DirtyIndex: 0
  - serializedVersion: 1
    m_DirtyIndex: 0
  - serializedVersion: 1
    m_DirtyIndex: 0
  - serializedVersion: 1
    m_DirtyIndex: 0
  - serializedVersion: 1
    m_DirtyIndex: 0
  - serializedVersion: 1
    m_DirtyIndex: 0
  - serializedVersion: 1
    m_DirtyIndex: 0
  - serializedVersion: 1
    m_DirtyIndex: 0
  - serializedVersion: 1
    m_DirtyIndex: 0
  - serializedVersion: 1
    m_DirtyIndex: 0
  - serializedVersion: 1
    m_DirtyIndex: 0
  - serializedVersion: 1
    m_DirtyIndex: 0
  - serializedVersion: 1
    m_DirtyIndex: 0
  - serializedVersion: 1
    m_DirtyIndex: 0
  - serializedVersion: 1
    m_DirtyIndex: 0
  - serializedVersion: 1
    m_DirtyIndex: 0
  - serializedVersion: 1
    m_DirtyIndex: 0
  - serializedVersion: 1
    m_DirtyIndex: 0
  - serializedVersion: 1
    m_DirtyIndex: 0
  - serializedVersion: 1
    m_DirtyIndex: 0
  - serializedVersion: 1
    m_DirtyIndex: 0
  - serializedVersion: 1
    m_DirtyIndex: 0
  - serializedVersion: 1
    m_DirtyIndex: 0
  - serializedVersion: 1
    m_DirtyIndex: 0
  - serializedVersion: 1
    m_DirtyIndex: 0
  - serializedVersion: 1
    m_DirtyIndex: 0
