%YAML 1.1
%TAG !u! tag:unity3d.com,2011:
--- !u!74 &7400000
AnimationClip:
  m_ObjectHideFlags: 0
  m_PrefabParentObject: {fileID: 0}
  m_PrefabInternal: {fileID: 0}
  m_Name: Walk
  serializedVersion: 6
  m_Legacy: 0
  m_Compressed: 0
  m_UseHighQualityCurve: 1
  m_RotationCurves: []
  m_CompressedRotationCurves: []
  m_EulerCurves: []
  m_PositionCurves: []
  m_ScaleCurves: []
  m_FloatCurves: []
  m_PPtrCurves:
  - curve:
    - time: 0
      value: {fileID: 21300000, guid: 9b4a7131d564546a6b901231bae90889, type: 3}
    - time: 0.05
      value: {fileID: 21300000, guid: 6d4e3ddbeb83247a7868c9780ff610d7, type: 3}
    - time: 0.1
      value: {fileID: 21300000, guid: 655d9e523312944cda04c3c846149301, type: 3}
    - time: 0.15
      value: {fileID: 21300000, guid: 4e75428a6959e447fad11eff2f0f8588, type: 3}
    - time: 0.2
      value: {fileID: 21300000, guid: 3f9cb2c74a4804d399fa860e014f0af3, type: 3}
    - time: 0.25
      value: {fileID: 21300000, guid: 3c997b4fef71841e3b8db2902bf5466c, type: 3}
    - time: 0.3
      value: {fileID: 21300000, guid: 53a801fb3c92f4621bba1825a1f2567e, type: 3}
    - time: 0.35
      value: {fileID: 21300000, guid: 9ee4e344d525641b7bbc4cd57da3cfd9, type: 3}
    - time: 0.4
      value: {fileID: 21300000, guid: 7cd6d91d141be48ff9cc71b9b1aaa68c, type: 3}
    - time: 0.45
      value: {fileID: 21300000, guid: bb4773b514e1b4e3387b97eebe6ab3cc, type: 3}
    - time: 0.5
      value: {fileID: 21300000, guid: 76c5255fd82c84f32bf12a7a930dded7, type: 3}
    - time: 0.55
      value: {fileID: 21300000, guid: 3c3cc33972489479ea58d7a6de179b3f, type: 3}
    - time: 0.6
      value: {fileID: 21300000, guid: 7c707156e293c4dcb953b2c5ed454252, type: 3}
    - time: 0.65
      value: {fileID: 21300000, guid: c2da0edd895e94ef09c7c8bf9fedcac4, type: 3}
    - time: 0.7
      value: {fileID: 21300000, guid: 46e9793522dc8446dbb2dc18f9f2ad94, type: 3}
    - time: 0.75
      value: {fileID: 21300000, guid: 7afc0d7fe833a45f9b9afce4ee85d45c, type: 3}
    - time: 0.8
      value: {fileID: 21300000, guid: 54fd98a067441448bae1415ba82afcca, type: 3}
    - time: 0.85
      value: {fileID: 21300000, guid: 48ad449690706450f8dce51a380d9dda, type: 3}
    - time: 0.9
      value: {fileID: 21300000, guid: d379ca51aec114984b536f1f0ab12dc2, type: 3}
    - time: 0.95
      value: {fileID: 21300000, guid: 6c3fdb0c0b5a847eda6efd9ff19ab6d3, type: 3}
    attribute: m_Sprite
    path: 
    classID: 212
    script: {fileID: 0}
  m_SampleRate: 20
  m_WrapMode: 0
  m_Bounds:
    m_Center: {x: 0, y: 0, z: 0}
    m_Extent: {x: 0, y: 0, z: 0}
  m_ClipBindingConstant:
    genericBindings:
    - serializedVersion: 2
      path: 0
      attribute: 0
      script: {fileID: 0}
      typeID: 212
      customType: 23
      isPPtrCurve: 1
    pptrCurveMapping:
    - {fileID: 21300000, guid: 9b4a7131d564546a6b901231bae90889, type: 3}
    - {fileID: 21300000, guid: 6d4e3ddbeb83247a7868c9780ff610d7, type: 3}
    - {fileID: 21300000, guid: 655d9e523312944cda04c3c846149301, type: 3}
    - {fileID: 21300000, guid: 4e75428a6959e447fad11eff2f0f8588, type: 3}
    - {fileID: 21300000, guid: 3f9cb2c74a4804d399fa860e014f0af3, type: 3}
    - {fileID: 21300000, guid: 3c997b4fef71841e3b8db2902bf5466c, type: 3}
    - {fileID: 21300000, guid: 53a801fb3c92f4621bba1825a1f2567e, type: 3}
    - {fileID: 21300000, guid: 9ee4e344d525641b7bbc4cd57da3cfd9, type: 3}
    - {fileID: 21300000, guid: 7cd6d91d141be48ff9cc71b9b1aaa68c, type: 3}
    - {fileID: 21300000, guid: bb4773b514e1b4e3387b97eebe6ab3cc, type: 3}
    - {fileID: 21300000, guid: 76c5255fd82c84f32bf12a7a930dded7, type: 3}
    - {fileID: 21300000, guid: 3c3cc33972489479ea58d7a6de179b3f, type: 3}
    - {fileID: 21300000, guid: 7c707156e293c4dcb953b2c5ed454252, type: 3}
    - {fileID: 21300000, guid: c2da0edd895e94ef09c7c8bf9fedcac4, type: 3}
    - {fileID: 21300000, guid: 46e9793522dc8446dbb2dc18f9f2ad94, type: 3}
    - {fileID: 21300000, guid: 7afc0d7fe833a45f9b9afce4ee85d45c, type: 3}
    - {fileID: 21300000, guid: 54fd98a067441448bae1415ba82afcca, type: 3}
    - {fileID: 21300000, guid: 48ad449690706450f8dce51a380d9dda, type: 3}
    - {fileID: 21300000, guid: d379ca51aec114984b536f1f0ab12dc2, type: 3}
    - {fileID: 21300000, guid: 6c3fdb0c0b5a847eda6efd9ff19ab6d3, type: 3}
  m_AnimationClipSettings:
    serializedVersion: 2
    m_AdditiveReferencePoseClip: {fileID: 0}
    m_AdditiveReferencePoseTime: 0
    m_StartTime: 0
    m_StopTime: 1
    m_OrientationOffsetY: 0
    m_Level: 0
    m_CycleOffset: 0
    m_HasAdditiveReferencePose: 0
    m_LoopTime: 1
    m_LoopBlend: 0
    m_LoopBlendOrientation: 0
    m_LoopBlendPositionY: 0
    m_LoopBlendPositionXZ: 0
    m_KeepOriginalOrientation: 0
    m_KeepOriginalPositionY: 1
    m_KeepOriginalPositionXZ: 0
    m_HeightFromFeet: 0
    m_Mirror: 0
  m_EditorCurves: []
  m_EulerEditorCurves: []
  m_HasGenericRootTransform: 0
  m_HasMotionFloatCurves: 0
  m_GenerateMotionCurves: 0
  m_Events: []
